                      :-) GROMACS - gmx mdrun, 2020.6 (-:

                            GROMACS is written by:
     Emile Apol      Rossen Apostolov      Paul Bauer     Herman J.C. Berendsen
    Par Bjelkmar      Christian Blau   Viacheslav Bolnykh     Kevin Boyd    
 Aldert van Buuren   Rudi van Drunen     Anton Feenstra       Alan Gray     
  Gerrit Groenhof     Anca Hamuraru    Vincent Hindriksen  M. Eric Irrgang  
  Aleksei Iupinov   Christoph Junghans     Joe Jordan     Dimitrios Karkoulis
    Peter Kasson        Jiri Kraus      Carsten Kutzner      Per Larsson    
  Justin A. Lemkul    Viveca Lindahl    Magnus Lundborg     Erik Marklund   
    Pascal Merz     Pieter Meulenhoff    Teemu Murtola       Szilard Pall   
    Sander Pronk      Roland Schulz      Michael Shirts    Alexey Shvetsov  
   Alfons Sijbers     Peter Tieleman      Jon Vincent      Teemu Virolainen 
 Christian Wennberg    Maarten Wolf      Artem Zhmurov   
                           and the project leaders:
        Mark Abraham, Berk Hess, Erik Lindahl, and David van der Spoel

Copyright (c) 1991-2000, University of Groningen, The Netherlands.
Copyright (c) 2001-2019, The GROMACS development team at
Uppsala University, Stockholm University and
the Royal Institute of Technology, Sweden.
check out http://www.gromacs.org for more information.

GROMACS is free software; you can redistribute it and/or modify it
under the terms of the GNU Lesser General Public License
as published by the Free Software Foundation; either version 2.1
of the License, or (at your option) any later version.

GROMACS:      gmx mdrun, version 2020.6
Executable:   /home/villa/miniconda3/envs/use-case1/bin.AVX2_256/gmx
Data prefix:  /home/villa/miniconda3/envs/use-case1
Working dir:  /home/villa/git/tutorials/tutorials-in-progress/replica-exchange-molecular-dynamics/data/prep
Process ID:   26199
Command line:
  gmx mdrun -v -deffnm nvt

GROMACS version:    2020.6
Verified release checksum is 2f568d8884e039acbc6b68722432516e0628be00c847969b7c905c8b53ef826f
Precision:          single
Memory model:       64 bit
MPI library:        thread_mpi
OpenMP support:     enabled (GMX_OPENMP_MAX_THREADS = 64)
GPU support:        OpenCL
SIMD instructions:  AVX2_256
FFT library:        fftw-3.3.10-sse2-avx
RDTSCP usage:       enabled
TNG support:        enabled
Hwloc support:      hwloc-2.4.1
Tracing support:    disabled
C compiler:         /opt/conda/conda-bld/gromacs_1618496378051/_build_env/bin/x86_64-conda-linux-gnu-cc GNU 9.3.0
C compiler flags:   -mavx2 -mfma -fexcess-precision=fast -funroll-all-loops -O3 -DNDEBUG
C++ compiler:       /opt/conda/conda-bld/gromacs_1618496378051/_build_env/bin/x86_64-conda-linux-gnu-c++ GNU 9.3.0
C++ compiler flags: -mavx2 -mfma -fexcess-precision=fast -funroll-all-loops -fopenmp -O3 -DNDEBUG
OpenCL include dir: /home/villa/miniconda3/envs/use-case1/include
OpenCL library:     /home/villa/miniconda3/envs/use-case1/lib/libOpenCL.so
OpenCL version:     2.2


Running on 1 node with total 8 cores, 8 logical cores (GPU detection deactivated)
Hardware detected:
  CPU info:
    Vendor: Intel
    Brand:  Intel(R) Core(TM) i7-9700 CPU @ 3.00GHz
    Family: 6   Model: 158   Stepping: 13
    Features: aes apic avx avx2 clfsh cmov cx8 cx16 f16c fma hle htt intel lahf mmx msr nonstop_tsc pcid pclmuldq pdcm pdpe1gb popcnt pse rdrnd rdtscp rtm sse2 sse3 sse4.1 sse4.2 ssse3 tdt x2apic
  Hardware topology: Full, with devices
    Sockets, cores, and logical processors:
      Socket  0: [   0] [   1] [   2] [   3] [   4] [   5] [   6] [   7]
    Numa nodes:
      Node  0 (16562561024 bytes mem):   0   1   2   3   4   5   6   7
      Latency:
               0
         0  1.00
    Caches:
      L1: 32768 bytes, linesize 64 bytes, assoc. 8, shared 1 ways
      L2: 262144 bytes, linesize 64 bytes, assoc. 4, shared 1 ways
      L3: 12582912 bytes, linesize 64 bytes, assoc. 12, shared 8 ways
    PCI devices:
      0000:00:02.0  Id: 8086:3e98  Class: 0x0300  Numa: 0
      0000:00:17.0  Id: 8086:2822  Class: 0x0104  Numa: 0
      0000:01:00.0  Id: 1179:011a  Class: 0x0108  Numa: 0
      0000:00:1f.6  Id: 8086:15bb  Class: 0x0200  Numa: 0


++++ PLEASE READ AND CITE THE FOLLOWING REFERENCE ++++
M. J. Abraham, T. Murtola, R. Schulz, S. Páll, J. C. Smith, B. Hess, E.
Lindahl
GROMACS: High performance molecular simulations through multi-level
parallelism from laptops to supercomputers
SoftwareX 1 (2015) pp. 19-25
-------- -------- --- Thank You --- -------- --------


++++ PLEASE READ AND CITE THE FOLLOWING REFERENCE ++++
S. Páll, M. J. Abraham, C. Kutzner, B. Hess, E. Lindahl
Tackling Exascale Software Challenges in Molecular Dynamics Simulations with
GROMACS
In S. Markidis & E. Laure (Eds.), Solving Software Challenges for Exascale 8759 (2015) pp. 3-27
-------- -------- --- Thank You --- -------- --------


++++ PLEASE READ AND CITE THE FOLLOWING REFERENCE ++++
S. Pronk, S. Páll, R. Schulz, P. Larsson, P. Bjelkmar, R. Apostolov, M. R.
Shirts, J. C. Smith, P. M. Kasson, D. van der Spoel, B. Hess, and E. Lindahl
GROMACS 4.5: a high-throughput and highly parallel open source molecular
simulation toolkit
Bioinformatics 29 (2013) pp. 845-54
-------- -------- --- Thank You --- -------- --------


++++ PLEASE READ AND CITE THE FOLLOWING REFERENCE ++++
B. Hess and C. Kutzner and D. van der Spoel and E. Lindahl
GROMACS 4: Algorithms for highly efficient, load-balanced, and scalable
molecular simulation
J. Chem. Theory Comput. 4 (2008) pp. 435-447
-------- -------- --- Thank You --- -------- --------


++++ PLEASE READ AND CITE THE FOLLOWING REFERENCE ++++
D. van der Spoel, E. Lindahl, B. Hess, G. Groenhof, A. E. Mark and H. J. C.
Berendsen
GROMACS: Fast, Flexible and Free
J. Comp. Chem. 26 (2005) pp. 1701-1719
-------- -------- --- Thank You --- -------- --------


++++ PLEASE READ AND CITE THE FOLLOWING REFERENCE ++++
E. Lindahl and B. Hess and D. van der Spoel
GROMACS 3.0: A package for molecular simulation and trajectory analysis
J. Mol. Mod. 7 (2001) pp. 306-317
-------- -------- --- Thank You --- -------- --------


++++ PLEASE READ AND CITE THE FOLLOWING REFERENCE ++++
H. J. C. Berendsen, D. van der Spoel and R. van Drunen
GROMACS: A message-passing parallel molecular dynamics implementation
Comp. Phys. Comm. 91 (1995) pp. 43-56
-------- -------- --- Thank You --- -------- --------


++++ PLEASE CITE THE DOI FOR THIS VERSION OF GROMACS ++++
https://doi.org/10.5281/zenodo.4576055
-------- -------- --- Thank You --- -------- --------

Input Parameters:
   integrator                     = md
   tinit                          = 0
   dt                             = 0.001
   nsteps                         = 100000
   init-step                      = 0
   simulation-part                = 1
   comm-mode                      = Linear
   nstcomm                        = 100
   bd-fric                        = 0
   ld-seed                        = -2314753
   emtol                          = 10
   emstep                         = 0.01
   niter                          = 20
   fcstep                         = 0
   nstcgsteep                     = 1000
   nbfgscorr                      = 10
   rtpi                           = 0.05
   nstxout                        = 0
   nstvout                        = 0
   nstfout                        = 0
   nstlog                         = 1000
   nstcalcenergy                  = 100
   nstenergy                      = 1000
   nstxout-compressed             = 0
   compressed-x-precision         = 1000
   cutoff-scheme                  = Verlet
   nstlist                        = 10
   pbc                            = xyz
   periodic-molecules             = false
   verlet-buffer-tolerance        = 0.005
   rlist                          = 1.2
   coulombtype                    = PME
   coulomb-modifier               = Potential-shift
   rcoulomb-switch                = 0
   rcoulomb                       = 1.2
   epsilon-r                      = 1
   epsilon-rf                     = inf
   vdw-type                       = Cut-off
   vdw-modifier                   = Force-switch
   rvdw-switch                    = 1
   rvdw                           = 1.2
   DispCorr                       = No
   table-extension                = 1
   fourierspacing                 = 0.15
   fourier-nx                     = 20
   fourier-ny                     = 20
   fourier-nz                     = 20
   pme-order                      = 4
   ewald-rtol                     = 1e-05
   ewald-rtol-lj                  = 0.001
   lj-pme-comb-rule               = Geometric
   ewald-geometry                 = 0
   epsilon-surface                = 0
   tcoupl                         = V-rescale
   nsttcouple                     = 10
   nh-chain-length                = 0
   print-nose-hoover-chain-variables = false
   pcoupl                         = No
   pcoupltype                     = Isotropic
   nstpcouple                     = -1
   tau-p                          = 1
   compressibility (3x3):
      compressibility[    0]={ 0.00000e+00,  0.00000e+00,  0.00000e+00}
      compressibility[    1]={ 0.00000e+00,  0.00000e+00,  0.00000e+00}
      compressibility[    2]={ 0.00000e+00,  0.00000e+00,  0.00000e+00}
   ref-p (3x3):
      ref-p[    0]={ 0.00000e+00,  0.00000e+00,  0.00000e+00}
      ref-p[    1]={ 0.00000e+00,  0.00000e+00,  0.00000e+00}
      ref-p[    2]={ 0.00000e+00,  0.00000e+00,  0.00000e+00}
   refcoord-scaling               = No
   posres-com (3):
      posres-com[0]= 0.00000e+00
      posres-com[1]= 0.00000e+00
      posres-com[2]= 0.00000e+00
   posres-comB (3):
      posres-comB[0]= 0.00000e+00
      posres-comB[1]= 0.00000e+00
      posres-comB[2]= 0.00000e+00
   QMMM                           = false
   QMconstraints                  = 0
   QMMMscheme                     = 0
   MMChargeScaleFactor            = 1
qm-opts:
   ngQM                           = 0
   constraint-algorithm           = Lincs
   continuation                   = false
   Shake-SOR                      = false
   shake-tol                      = 0.0001
   lincs-order                    = 4
   lincs-iter                     = 1
   lincs-warnangle                = 30
   nwall                          = 0
   wall-type                      = 9-3
   wall-r-linpot                  = -1
   wall-atomtype[0]               = -1
   wall-atomtype[1]               = -1
   wall-density[0]                = 0
   wall-density[1]                = 0
   wall-ewald-zfac                = 3
   pull                           = false
   awh                            = false
   rotation                       = false
   interactiveMD                  = false
   disre                          = No
   disre-weighting                = Conservative
   disre-mixed                    = false
   dr-fc                          = 1000
   dr-tau                         = 0
   nstdisreout                    = 100
   orire-fc                       = 0
   orire-tau                      = 0
   nstorireout                    = 100
   free-energy                    = no
   cos-acceleration               = 0
   deform (3x3):
      deform[    0]={ 0.00000e+00,  0.00000e+00,  0.00000e+00}
      deform[    1]={ 0.00000e+00,  0.00000e+00,  0.00000e+00}
      deform[    2]={ 0.00000e+00,  0.00000e+00,  0.00000e+00}
   simulated-tempering            = false
   swapcoords                     = no
   userint1                       = 0
   userint2                       = 0
   userint3                       = 0
   userint4                       = 0
   userreal1                      = 0
   userreal2                      = 0
   userreal3                      = 0
   userreal4                      = 0
   applied-forces:
     electric-field:
       x:
         E0                       = 0
         omega                    = 0
         t0                       = 0
         sigma                    = 0
       y:
         E0                       = 0
         omega                    = 0
         t0                       = 0
         sigma                    = 0
       z:
         E0                       = 0
         omega                    = 0
         t0                       = 0
         sigma                    = 0
     density-guided-simulation:
       active                     = false
       group                      = protein
       similarity-measure         = inner-product
       atom-spreading-weight      = unity
       force-constant             = 1e+09
       gaussian-transform-spreading-width = 0.2
       gaussian-transform-spreading-range-in-multiples-of-width = 4
       reference-density-filename = reference.mrc
       nst                        = 1
       normalize-densities        = true
       adaptive-force-scaling     = false
       adaptive-force-scaling-time-constant = 4
grpopts:
   nrdf:        5311
   ref-t:         300
   tau-t:         0.1
annealing:          No
annealing-npoints:           0
   acc:	           0           0           0
   nfreeze:           N           N           N
   energygrp-flags[  0]: 0

Changing nstlist from 10 to 100, rlist from 1.2 to 1.299

Using 1 MPI thread

Non-default thread affinity set, disabling internal thread affinity

Using 8 OpenMP threads 

System total charge: 0.000
Will do PME sum in reciprocal space for electrostatic interactions.

++++ PLEASE READ AND CITE THE FOLLOWING REFERENCE ++++
U. Essmann, L. Perera, M. L. Berkowitz, T. Darden, H. Lee and L. G. Pedersen 
A smooth particle mesh Ewald method
J. Chem. Phys. 103 (1995) pp. 8577-8592
-------- -------- --- Thank You --- -------- --------

Using a Gaussian width (1/beta) of 0.384195 nm for Ewald
Potential shift: LJ r^-12: -2.648e-01 r^-6: -5.349e-01, Ewald -8.333e-06
Initialized non-bonded Ewald tables, spacing: 1.02e-03 size: 1176

Generated table with 1149 data points for 1-4 COUL.
Tabscale = 500 points/nm
Generated table with 1149 data points for 1-4 LJ6.
Tabscale = 500 points/nm
Generated table with 1149 data points for 1-4 LJ12.
Tabscale = 500 points/nm

Using SIMD 4x8 nonbonded short-range kernels

Using a dual 4x8 pair-list setup updated with dynamic pruning:
  outer list: updated every 100 steps, buffer 0.099 nm, rlist 1.299 nm
  inner list: updated every  23 steps, buffer 0.001 nm, rlist 1.201 nm
At tolerance 0.005 kJ/mol/ps per atom, equivalent classical 1x1 list would be:
  outer list: updated every 100 steps, buffer 0.229 nm, rlist 1.429 nm
  inner list: updated every  23 steps, buffer 0.047 nm, rlist 1.247 nm

Removing pbc first time

Initializing LINear Constraint Solver

++++ PLEASE READ AND CITE THE FOLLOWING REFERENCE ++++
B. Hess and H. Bekker and H. J. C. Berendsen and J. G. E. M. Fraaije
LINCS: A Linear Constraint Solver for molecular simulations
J. Comp. Chem. 18 (1997) pp. 1463-1472
-------- -------- --- Thank You --- -------- --------

The number of constraints is 17

++++ PLEASE READ AND CITE THE FOLLOWING REFERENCE ++++
S. Miyamoto and P. A. Kollman
SETTLE: An Analytical Version of the SHAKE and RATTLE Algorithms for Rigid
Water Models
J. Comp. Chem. 13 (1992) pp. 952-962
-------- -------- --- Thank You --- -------- --------


++++ PLEASE READ AND CITE THE FOLLOWING REFERENCE ++++
G. Bussi, D. Donadio and M. Parrinello
Canonical sampling through velocity rescaling
J. Chem. Phys. 126 (2007) pp. 014101
-------- -------- --- Thank You --- -------- --------

There are: 2649 Atoms

Constraining the starting coordinates (step 0)

Constraining the coordinates at t0-dt (step 0)
Center of mass motion removal mode is Linear
We have the following groups for center of mass motion removal:
  0:  rest
RMS relative constraint deviation after constraining: 1.05e-06
Initial temperature: 302.042 K

Started mdrun on rank 0 Tue Nov  9 10:59:48 2021

           Step           Time
              0        0.00000

   Energies (kJ/mol)
           Bond            U-B    Proper Dih.  Improper Dih.      CMAP Dih.
    2.32284e+00    1.36678e+01    4.58888e+01    8.04015e-01   -1.43549e+00
          LJ-14     Coulomb-14        LJ (SR)   Coulomb (SR)   Coul. recip.
    8.14684e+00    1.16537e+03    5.38912e+03   -4.47450e+04    1.92049e+02
 Position Rest.      Potential    Kinetic En.   Total Energy  Conserved En.
    8.61564e-06   -3.79291e+04    6.66967e+03   -3.12594e+04   -3.12594e+04
    Temperature Pressure (bar)   Constr. rmsd
    3.02081e+02   -2.72365e+03    9.62074e-07

           Step           Time
           1000        1.00000

   Energies (kJ/mol)
           Bond            U-B    Proper Dih.  Improper Dih.      CMAP Dih.
    2.39724e+01    7.39971e+01    5.35954e+01    1.15163e+01   -7.57268e+00
          LJ-14     Coulomb-14        LJ (SR)   Coulomb (SR)   Coul. recip.
    6.79579e+00    1.11605e+03    5.43719e+03   -4.16991e+04    1.10528e+02
 Position Rest.      Potential    Kinetic En.   Total Energy  Conserved En.
    1.67136e+01   -3.48563e+04    6.40406e+03   -2.84522e+04   -3.12491e+04
    Temperature Pressure (bar)   Constr. rmsd
    2.90051e+02    2.83644e+02    6.64988e-07

           Step           Time
           2000        2.00000

   Energies (kJ/mol)
           Bond            U-B    Proper Dih.  Improper Dih.      CMAP Dih.
    2.29860e+01    5.70245e+01    4.84029e+01    8.99577e+00   -7.49453e+00
          LJ-14     Coulomb-14        LJ (SR)   Coulomb (SR)   Coul. recip.
    5.22745e+00    1.09793e+03    5.30116e+03   -4.17753e+04    1.12052e+02
 Position Rest.      Potential    Kinetic En.   Total Energy  Conserved En.
    7.73153e+00   -3.51213e+04    6.61070e+03   -2.85106e+04   -3.12504e+04
    Temperature Pressure (bar)   Constr. rmsd
    2.99410e+02   -4.17043e+02    7.57541e-07

           Step           Time
           3000        3.00000

   Energies (kJ/mol)
           Bond            U-B    Proper Dih.  Improper Dih.      CMAP Dih.
    1.87937e+01    8.51759e+01    5.34062e+01    1.28550e+01   -5.74769e+00
          LJ-14     Coulomb-14        LJ (SR)   Coulomb (SR)   Coul. recip.
    7.94354e+00    1.18116e+03    5.64959e+03   -4.20855e+04    1.29008e+02
 Position Rest.      Potential    Kinetic En.   Total Energy  Conserved En.
    1.10581e+01   -3.49423e+04    6.49165e+03   -2.84506e+04   -3.12486e+04
    Temperature Pressure (bar)   Constr. rmsd
    2.94019e+02    3.67808e+02    6.31624e-07

           Step           Time
           4000        4.00000

   Energies (kJ/mol)
           Bond            U-B    Proper Dih.  Improper Dih.      CMAP Dih.
    1.27910e+01    7.08424e+01    4.69067e+01    6.88900e+00   -7.11891e+00
          LJ-14     Coulomb-14        LJ (SR)   Coulomb (SR)   Coul. recip.
    1.24225e+01    1.16527e+03    5.38344e+03   -4.15732e+04    1.16567e+02
 Position Rest.      Potential    Kinetic En.   Total Energy  Conserved En.
    1.22316e+01   -3.47529e+04    6.56291e+03   -2.81900e+04   -3.12502e+04
    Temperature Pressure (bar)   Constr. rmsd
    2.97246e+02    1.67978e+02    4.97639e-07

           Step           Time
           5000        5.00000

   Energies (kJ/mol)
           Bond            U-B    Proper Dih.  Improper Dih.      CMAP Dih.
    3.73691e+01    6.51561e+01    5.50478e+01    4.24165e+00   -7.14380e+00
          LJ-14     Coulomb-14        LJ (SR)   Coulomb (SR)   Coul. recip.
    3.64399e+00    1.13947e+03    5.30525e+03   -4.16618e+04    1.31185e+02
 Position Rest.      Potential    Kinetic En.   Total Energy  Conserved En.
    1.32873e+01   -3.49143e+04    6.46276e+03   -2.84515e+04   -3.12512e+04
    Temperature Pressure (bar)   Constr. rmsd
    2.92710e+02   -4.52190e+02    6.97355e-07

           Step           Time
           6000        6.00000

   Energies (kJ/mol)
           Bond            U-B    Proper Dih.  Improper Dih.      CMAP Dih.
    4.54354e+01    8.21095e+01    4.56027e+01    2.02524e+00   -5.08726e+00
          LJ-14     Coulomb-14        LJ (SR)   Coulomb (SR)   Coul. recip.
    5.18827e+00    1.13952e+03    5.41716e+03   -4.19193e+04    1.13309e+02
 Position Rest.      Potential    Kinetic En.   Total Energy  Conserved En.
    1.97913e+01   -3.50542e+04    6.56738e+03   -2.84868e+04   -3.12512e+04
    Temperature Pressure (bar)   Constr. rmsd
    2.97449e+02   -2.60139e+02    5.52183e-07

           Step           Time
           7000        7.00000

   Energies (kJ/mol)
           Bond            U-B    Proper Dih.  Improper Dih.      CMAP Dih.
    1.52120e+01    4.93891e+01    4.49788e+01    4.30372e+00   -7.85390e+00
          LJ-14     Coulomb-14        LJ (SR)   Coulomb (SR)   Coul. recip.
    8.81663e+00    1.14922e+03    5.53685e+03   -4.21709e+04    1.21162e+02
 Position Rest.      Potential    Kinetic En.   Total Energy  Conserved En.
    1.31868e+01   -3.52356e+04    6.39347e+03   -2.88421e+04   -3.12520e+04
    Temperature Pressure (bar)   Constr. rmsd
    2.89572e+02    4.21815e+01    1.32336e-06

           Step           Time
           8000        8.00000

   Energies (kJ/mol)
           Bond            U-B    Proper Dih.  Improper Dih.      CMAP Dih.
    1.28766e+01    5.39268e+01    4.39075e+01    2.53781e+00   -7.65551e+00
          LJ-14     Coulomb-14        LJ (SR)   Coulomb (SR)   Coul. recip.
    7.45172e+00    1.15577e+03    5.22459e+03   -4.15524e+04    1.04012e+02
 Position Rest.      Potential    Kinetic En.   Total Energy  Conserved En.
    3.87566e+01   -3.49163e+04    6.51666e+03   -2.83996e+04   -3.12525e+04
    Temperature Pressure (bar)   Constr. rmsd
    2.95151e+02   -2.57827e+02    6.46503e-07

           Step           Time
           9000        9.00000

   Energies (kJ/mol)
           Bond            U-B    Proper Dih.  Improper Dih.      CMAP Dih.
    1.93492e+01    6.32118e+01    4.50236e+01    5.98552e+00   -5.57990e+00
          LJ-14     Coulomb-14        LJ (SR)   Coulomb (SR)   Coul. recip.
    5.85152e+00    1.11475e+03    5.52124e+03   -4.18284e+04    1.24542e+02
 Position Rest.      Potential    Kinetic En.   Total Energy  Conserved En.
    2.47283e+01   -3.49094e+04    6.69904e+03   -2.82103e+04   -3.12533e+04
    Temperature Pressure (bar)   Constr. rmsd
    3.03412e+02    1.94770e+02    6.73109e-07

           Step           Time
          10000       10.00000

   Energies (kJ/mol)
           Bond            U-B    Proper Dih.  Improper Dih.      CMAP Dih.
    7.84736e+00    4.82498e+01    5.48294e+01    5.40363e-01   -8.01527e+00
          LJ-14     Coulomb-14        LJ (SR)   Coulomb (SR)   Coul. recip.
    1.12021e+01    1.16272e+03    5.53345e+03   -4.16270e+04    1.39532e+02
 Position Rest.      Potential    Kinetic En.   Total Energy  Conserved En.
    1.76012e+01   -3.46590e+04    6.75416e+03   -2.79049e+04   -3.12543e+04
    Temperature Pressure (bar)   Constr. rmsd
    3.05908e+02    7.00259e+02    5.38968e-07

           Step           Time
          11000       11.00000

   Energies (kJ/mol)
           Bond            U-B    Proper Dih.  Improper Dih.      CMAP Dih.
    2.31100e+01    7.68325e+01    5.35603e+01    5.80969e+00   -7.36724e+00
          LJ-14     Coulomb-14        LJ (SR)   Coulomb (SR)   Coul. recip.
    1.32285e+01    1.17373e+03    5.24157e+03   -4.15722e+04    1.14464e+02
 Position Rest.      Potential    Kinetic En.   Total Energy  Conserved En.
    1.21140e+01   -3.48652e+04    6.72838e+03   -2.81368e+04   -3.12548e+04
    Temperature Pressure (bar)   Constr. rmsd
    3.04740e+02   -3.80859e+02    7.31292e-07

           Step           Time
          12000       12.00000

   Energies (kJ/mol)
           Bond            U-B    Proper Dih.  Improper Dih.      CMAP Dih.
    3.30456e+01    4.24976e+01    5.21208e+01    4.45930e+00   -1.66840e-01
          LJ-14     Coulomb-14        LJ (SR)   Coulomb (SR)   Coul. recip.
    1.19856e+01    1.14064e+03    5.10713e+03   -4.13814e+04    1.35861e+02
 Position Rest.      Potential    Kinetic En.   Total Energy  Conserved En.
    1.98049e+01   -3.48340e+04    6.54264e+03   -2.82914e+04   -3.12548e+04
    Temperature Pressure (bar)   Constr. rmsd
    2.96328e+02   -6.23840e+02    6.43750e-07

           Step           Time
          13000       13.00000

   Energies (kJ/mol)
           Bond            U-B    Proper Dih.  Improper Dih.      CMAP Dih.
    1.40587e+01    3.17179e+01    4.12502e+01    7.49478e+00   -5.25601e+00
          LJ-14     Coulomb-14        LJ (SR)   Coulomb (SR)   Coul. recip.
    4.47105e+00    1.15003e+03    5.65975e+03   -4.20349e+04    1.27554e+02
 Position Rest.      Potential    Kinetic En.   Total Energy  Conserved En.
    9.47089e+00   -3.49943e+04    6.65620e+03   -2.83381e+04   -3.12555e+04
    Temperature Pressure (bar)   Constr. rmsd
    3.01471e+02    5.66099e+02    6.56129e-07

           Step           Time
          14000       14.00000

   Energies (kJ/mol)
           Bond            U-B    Proper Dih.  Improper Dih.      CMAP Dih.
    1.82474e+01    7.06196e+01    4.68227e+01    4.09377e+00   -3.39158e+00
          LJ-14     Coulomb-14        LJ (SR)   Coulomb (SR)   Coul. recip.
    1.03171e+01    1.12856e+03    5.32947e+03   -4.17314e+04    1.30717e+02
 Position Rest.      Potential    Kinetic En.   Total Energy  Conserved En.
    1.43616e+01   -3.49816e+04    6.85130e+03   -2.81303e+04   -3.12563e+04
    Temperature Pressure (bar)   Constr. rmsd
    3.10308e+02    2.94533e+01    6.77442e-07

           Step           Time
          15000       15.00000

   Energies (kJ/mol)
           Bond            U-B    Proper Dih.  Improper Dih.      CMAP Dih.
    2.29991e+01    7.44009e+01    4.73041e+01    4.10439e+00   -5.30491e+00
          LJ-14     Coulomb-14        LJ (SR)   Coulomb (SR)   Coul. recip.
    3.01826e+00    1.10302e+03    5.68766e+03   -4.19655e+04    1.27132e+02
 Position Rest.      Potential    Kinetic En.   Total Energy  Conserved En.
    1.50428e+01   -3.48862e+04    6.74425e+03   -2.81419e+04   -3.12554e+04
    Temperature Pressure (bar)   Constr. rmsd
    3.05459e+02    4.15713e+02    9.92230e-07

           Step           Time
          16000       16.00000

   Energies (kJ/mol)
           Bond            U-B    Proper Dih.  Improper Dih.      CMAP Dih.
    2.12709e+01    5.20440e+01    4.82283e+01    1.57377e+00   -5.76649e+00
          LJ-14     Coulomb-14        LJ (SR)   Coulomb (SR)   Coul. recip.
    9.81887e+00    1.11469e+03    5.40975e+03   -4.15288e+04    1.18446e+02
 Position Rest.      Potential    Kinetic En.   Total Energy  Conserved En.
    1.57121e+01   -3.47431e+04    6.62301e+03   -2.81200e+04   -3.12575e+04
    Temperature Pressure (bar)   Constr. rmsd
    2.99968e+02    2.00872e+02    6.71710e-07

           Step           Time
          17000       17.00000

   Energies (kJ/mol)
           Bond            U-B    Proper Dih.  Improper Dih.      CMAP Dih.
    2.34044e+01    5.46470e+01    4.93405e+01    3.15225e+00   -7.86603e+00
          LJ-14     Coulomb-14        LJ (SR)   Coulomb (SR)   Coul. recip.
    4.92902e+00    1.11611e+03    5.44428e+03   -4.15540e+04    1.21643e+02
 Position Rest.      Potential    Kinetic En.   Total Energy  Conserved En.
    1.71724e+01   -3.47272e+04    6.52045e+03   -2.82068e+04   -3.12566e+04
    Temperature Pressure (bar)   Constr. rmsd
    2.95323e+02    2.16628e+02    8.74693e-07

           Step           Time
          18000       18.00000

   Energies (kJ/mol)
           Bond            U-B    Proper Dih.  Improper Dih.      CMAP Dih.
    2.45864e+01    7.18457e+01    4.10112e+01    3.00684e+00   -4.21897e+00
          LJ-14     Coulomb-14        LJ (SR)   Coulomb (SR)   Coul. recip.
    4.09737e+00    1.09934e+03    5.55172e+03   -4.20389e+04    1.37352e+02
 Position Rest.      Potential    Kinetic En.   Total Energy  Conserved En.
    1.87484e+01   -3.50914e+04    6.70586e+03   -2.83856e+04   -3.12572e+04
    Temperature Pressure (bar)   Constr. rmsd
    3.03721e+02    2.73864e+02    5.60821e-07

           Step           Time
          19000       19.00000

   Energies (kJ/mol)
           Bond            U-B    Proper Dih.  Improper Dih.      CMAP Dih.
    1.66696e+01    5.51716e+01    4.03264e+01    7.70247e+00   -4.50827e+00
          LJ-14     Coulomb-14        LJ (SR)   Coulomb (SR)   Coul. recip.
    5.44708e+00    1.16151e+03    5.33950e+03   -4.17500e+04    1.27457e+02
 Position Rest.      Potential    Kinetic En.   Total Energy  Conserved En.
    2.95886e+01   -3.49711e+04    6.65732e+03   -2.83138e+04   -3.12581e+04
    Temperature Pressure (bar)   Constr. rmsd
    3.01522e+02    8.13601e+01    5.83467e-07

           Step           Time
          20000       20.00000

   Energies (kJ/mol)
           Bond            U-B    Proper Dih.  Improper Dih.      CMAP Dih.
    2.97117e+01    7.39026e+01    3.83939e+01    4.96057e+00   -7.23562e+00
          LJ-14     Coulomb-14        LJ (SR)   Coulomb (SR)   Coul. recip.
    8.22332e+00    1.09696e+03    5.16349e+03   -4.16285e+04    1.14519e+02
 Position Rest.      Potential    Kinetic En.   Total Energy  Conserved En.
    3.52910e+01   -3.50702e+04    6.64782e+03   -2.84224e+04   -3.12587e+04
    Temperature Pressure (bar)   Constr. rmsd
    3.01092e+02   -3.98991e+02    7.33575e-07

           Step           Time
          21000       21.00000

   Energies (kJ/mol)
           Bond            U-B    Proper Dih.  Improper Dih.      CMAP Dih.
    1.52774e+01    8.32197e+01    3.63175e+01    1.64301e+00   -5.44343e+00
          LJ-14     Coulomb-14        LJ (SR)   Coulomb (SR)   Coul. recip.
    3.69047e+00    1.12232e+03    5.34661e+03   -4.15422e+04    1.34804e+02
 Position Rest.      Potential    Kinetic En.   Total Energy  Conserved En.
    3.90883e+01   -3.47647e+04    6.47793e+03   -2.82868e+04   -3.12583e+04
    Temperature Pressure (bar)   Constr. rmsd
    2.93397e+02   -1.05103e+02    4.69550e-07

           Step           Time
          22000       22.00000

   Energies (kJ/mol)
           Bond            U-B    Proper Dih.  Improper Dih.      CMAP Dih.
    2.62880e+01    5.05397e+01    4.41032e+01    1.54585e+00   -6.36039e+00
          LJ-14     Coulomb-14        LJ (SR)   Coulomb (SR)   Coul. recip.
    6.63432e+00    1.14717e+03    5.32120e+03   -4.15798e+04    1.15986e+02
 Position Rest.      Potential    Kinetic En.   Total Energy  Conserved En.
    1.91192e+01   -3.48536e+04    6.93483e+03   -2.79188e+04   -3.12615e+04
    Temperature Pressure (bar)   Constr. rmsd
    3.14091e+02    2.13710e+01    9.95699e-07

           Step           Time
          23000       23.00000

   Energies (kJ/mol)
           Bond            U-B    Proper Dih.  Improper Dih.      CMAP Dih.
    2.44877e+01    6.25836e+01    4.38674e+01    8.28109e-01   -6.51501e+00
          LJ-14     Coulomb-14        LJ (SR)   Coulomb (SR)   Coul. recip.
    1.58421e+01    1.17390e+03    5.15383e+03   -4.17246e+04    1.31437e+02
 Position Rest.      Potential    Kinetic En.   Total Energy  Conserved En.
    2.28523e+01   -3.51015e+04    6.60734e+03   -2.84942e+04   -3.12599e+04
    Temperature Pressure (bar)   Constr. rmsd
    2.99258e+02   -4.43903e+02    6.68592e-07

           Step           Time
          24000       24.00000

   Energies (kJ/mol)
           Bond            U-B    Proper Dih.  Improper Dih.      CMAP Dih.
    2.24169e+01    6.66484e+01    5.41506e+01    4.44969e+00   -8.03709e+00
          LJ-14     Coulomb-14        LJ (SR)   Coulomb (SR)   Coul. recip.
    7.59066e+00    1.14108e+03    5.32502e+03   -4.16761e+04    1.23123e+02
 Position Rest.      Potential    Kinetic En.   Total Energy  Conserved En.
    2.47011e+01   -3.49149e+04    6.77917e+03   -2.81358e+04   -3.12615e+04
    Temperature Pressure (bar)   Constr. rmsd
    3.07041e+02    2.51927e+02    7.60706e-07

           Step           Time
          25000       25.00000

   Energies (kJ/mol)
           Bond            U-B    Proper Dih.  Improper Dih.      CMAP Dih.
    2.85643e+01    5.18245e+01    4.37950e+01    3.90895e+00   -7.57784e+00
          LJ-14     Coulomb-14        LJ (SR)   Coulomb (SR)   Coul. recip.
    8.61895e+00    1.14062e+03    5.47002e+03   -4.14324e+04    1.46701e+02
 Position Rest.      Potential    Kinetic En.   Total Energy  Conserved En.
    2.01343e+01   -3.45258e+04    6.73206e+03   -2.77937e+04   -3.12627e+04
    Temperature Pressure (bar)   Constr. rmsd
    3.04907e+02    7.37826e+02    5.94115e-07

           Step           Time
          26000       26.00000

   Energies (kJ/mol)
           Bond            U-B    Proper Dih.  Improper Dih.      CMAP Dih.
    2.61420e+01    5.40904e+01    4.69249e+01    7.06503e-01   -5.14807e+00
          LJ-14     Coulomb-14        LJ (SR)   Coulomb (SR)   Coul. recip.
    1.02592e+01    1.15314e+03    5.45335e+03   -4.17751e+04    9.82497e+01
 Position Rest.      Potential    Kinetic En.   Total Energy  Conserved En.
    1.15348e+01   -3.49259e+04    6.57014e+03   -2.83557e+04   -3.12633e+04
    Temperature Pressure (bar)   Constr. rmsd
    2.97573e+02    1.18009e+02    8.87147e-07

           Step           Time
          27000       27.00000

   Energies (kJ/mol)
           Bond            U-B    Proper Dih.  Improper Dih.      CMAP Dih.
    1.82553e+01    6.85254e+01    5.40163e+01    1.11952e+01   -6.03882e+00
          LJ-14     Coulomb-14        LJ (SR)   Coulomb (SR)   Coul. recip.
    8.77804e+00    1.14882e+03    5.39420e+03   -4.19392e+04    1.17893e+02
 Position Rest.      Potential    Kinetic En.   Total Energy  Conserved En.
    9.11114e+00   -3.51144e+04    6.66178e+03   -2.84526e+04   -3.12624e+04
    Temperature Pressure (bar)   Constr. rmsd
    3.01724e+02   -1.48317e+02    6.04748e-07

           Step           Time
          28000       28.00000

   Energies (kJ/mol)
           Bond            U-B    Proper Dih.  Improper Dih.      CMAP Dih.
    1.43354e+01    5.30180e+01    4.63746e+01    1.02202e+01   -2.42469e+00
          LJ-14     Coulomb-14        LJ (SR)   Coulomb (SR)   Coul. recip.
    1.75867e+01    1.13929e+03    5.33848e+03   -4.15655e+04    1.31479e+02
 Position Rest.      Potential    Kinetic En.   Total Energy  Conserved En.
    1.40709e+01   -3.48030e+04    6.62002e+03   -2.81830e+04   -3.12631e+04
    Temperature Pressure (bar)   Constr. rmsd
    2.99833e+02   -5.06802e+01    4.05806e-07

           Step           Time
          29000       29.00000

   Energies (kJ/mol)
           Bond            U-B    Proper Dih.  Improper Dih.      CMAP Dih.
    1.61439e+01    7.25962e+01    4.94150e+01    7.37399e+00   -6.27728e+00
          LJ-14     Coulomb-14        LJ (SR)   Coulomb (SR)   Coul. recip.
    1.00149e+01    1.15958e+03    5.34658e+03   -4.14915e+04    1.19514e+02
 Position Rest.      Potential    Kinetic En.   Total Energy  Conserved En.
    2.38543e+01   -3.46927e+04    6.82255e+03   -2.78702e+04   -3.12642e+04
    Temperature Pressure (bar)   Constr. rmsd
    3.09005e+02    3.47349e+02    7.23535e-07

           Step           Time
          30000       30.00000

   Energies (kJ/mol)
           Bond            U-B    Proper Dih.  Improper Dih.      CMAP Dih.
    1.85498e+01    5.21469e+01    4.15770e+01    2.74262e+00   -7.50225e+00
          LJ-14     Coulomb-14        LJ (SR)   Coulomb (SR)   Coul. recip.
    7.47470e+00    1.12250e+03    5.46765e+03   -4.20024e+04    1.22687e+02
 Position Rest.      Potential    Kinetic En.   Total Energy  Conserved En.
    2.27059e+01   -3.51519e+04    6.74734e+03   -2.84045e+04   -3.12653e+04
    Temperature Pressure (bar)   Constr. rmsd
    3.05599e+02    2.55655e+02    7.68088e-07

           Step           Time
          31000       31.00000

   Energies (kJ/mol)
           Bond            U-B    Proper Dih.  Improper Dih.      CMAP Dih.
    2.45664e+01    8.62813e+01    4.13869e+01    5.33007e+00   -6.73779e+00
          LJ-14     Coulomb-14        LJ (SR)   Coulomb (SR)   Coul. recip.
    6.72648e+00    1.10742e+03    5.37153e+03   -4.15647e+04    1.32800e+02
 Position Rest.      Potential    Kinetic En.   Total Energy  Conserved En.
    2.35452e+01   -3.47719e+04    6.70638e+03   -2.80655e+04   -3.12659e+04
    Temperature Pressure (bar)   Constr. rmsd
    3.03744e+02    7.01276e+01    7.59332e-07

           Step           Time
          32000       32.00000

   Energies (kJ/mol)
           Bond            U-B    Proper Dih.  Improper Dih.      CMAP Dih.
    1.78339e+01    7.99398e+01    5.65214e+01    2.22387e+00   -7.47633e+00
          LJ-14     Coulomb-14        LJ (SR)   Coulomb (SR)   Coul. recip.
    7.32501e+00    1.12778e+03    5.14003e+03   -4.16133e+04    1.16293e+02
 Position Rest.      Potential    Kinetic En.   Total Energy  Conserved En.
    2.31058e+01   -3.50498e+04    6.58998e+03   -2.84598e+04   -3.12657e+04
    Temperature Pressure (bar)   Constr. rmsd
    2.98472e+02   -5.38837e+02    5.60634e-07

           Step           Time
          33000       33.00000

   Energies (kJ/mol)
           Bond            U-B    Proper Dih.  Improper Dih.      CMAP Dih.
    1.52539e+01    5.29254e+01    5.02646e+01    5.89327e+00   -4.34862e+00
          LJ-14     Coulomb-14        LJ (SR)   Coulomb (SR)   Coul. recip.
    2.72164e+00    1.11751e+03    5.42657e+03   -4.19857e+04    1.27071e+02
 Position Rest.      Potential    Kinetic En.   Total Energy  Conserved En.
    3.66647e+01   -3.51552e+04    6.54660e+03   -2.86086e+04   -3.12675e+04
    Temperature Pressure (bar)   Constr. rmsd
    2.96507e+02   -1.02635e+02    4.91512e-07

           Step           Time
          34000       34.00000

   Energies (kJ/mol)
           Bond            U-B    Proper Dih.  Improper Dih.      CMAP Dih.
    2.07500e+01    9.10890e+01    5.10547e+01    3.07955e+00   -5.82140e+00
          LJ-14     Coulomb-14        LJ (SR)   Coulomb (SR)   Coul. recip.
    5.83676e+00    1.12129e+03    5.62107e+03   -4.22999e+04    1.27550e+02
 Position Rest.      Potential    Kinetic En.   Total Energy  Conserved En.
    1.34880e+01   -3.52505e+04    6.61278e+03   -2.86377e+04   -3.12663e+04
    Temperature Pressure (bar)   Constr. rmsd
    2.99505e+02    2.25836e+02    7.23246e-07

           Step           Time
          35000       35.00000

   Energies (kJ/mol)
           Bond            U-B    Proper Dih.  Improper Dih.      CMAP Dih.
    2.41473e+01    6.30967e+01    4.51852e+01    2.01958e+00   -7.56144e+00
          LJ-14     Coulomb-14        LJ (SR)   Coulomb (SR)   Coul. recip.
    1.42138e-01    1.11436e+03    5.50650e+03   -4.22142e+04    1.21900e+02
 Position Rest.      Potential    Kinetic En.   Total Energy  Conserved En.
    1.60750e+01   -3.53283e+04    6.61705e+03   -2.87113e+04   -3.12672e+04
    Temperature Pressure (bar)   Constr. rmsd
    2.99698e+02   -1.70697e+02    5.11106e-07

           Step           Time
          36000       36.00000

   Energies (kJ/mol)
           Bond            U-B    Proper Dih.  Improper Dih.      CMAP Dih.
    2.31406e+01    6.25286e+01    5.69752e+01    3.73290e+00   -8.13107e+00
          LJ-14     Coulomb-14        LJ (SR)   Coulomb (SR)   Coul. recip.
    5.24426e+00    1.12009e+03    5.39212e+03   -4.20525e+04    1.26332e+02
 Position Rest.      Potential    Kinetic En.   Total Energy  Conserved En.
    1.18139e+01   -3.52586e+04    6.43844e+03   -2.88202e+04   -3.12677e+04
    Temperature Pressure (bar)   Constr. rmsd
    2.91608e+02   -5.33457e+02    6.03711e-07

           Step           Time
          37000       37.00000

   Energies (kJ/mol)
           Bond            U-B    Proper Dih.  Improper Dih.      CMAP Dih.
    3.59958e+01    4.67995e+01    4.80111e+01    2.29779e+00   -7.69198e+00
          LJ-14     Coulomb-14        LJ (SR)   Coulomb (SR)   Coul. recip.
    6.86834e+00    1.15436e+03    5.46633e+03   -4.20441e+04    1.30381e+02
 Position Rest.      Potential    Kinetic En.   Total Energy  Conserved En.
    9.26921e+00   -3.51515e+04    6.63464e+03   -2.85168e+04   -3.12681e+04
    Temperature Pressure (bar)   Constr. rmsd
    3.00495e+02   -2.08685e+02    4.97639e-07

           Step           Time
          38000       38.00000

   Energies (kJ/mol)
           Bond            U-B    Proper Dih.  Improper Dih.      CMAP Dih.
    1.19905e+01    4.61680e+01    5.12006e+01    7.17604e+00   -6.07736e+00
          LJ-14     Coulomb-14        LJ (SR)   Coulomb (SR)   Coul. recip.
    5.00545e+00    1.12792e+03    5.68410e+03   -4.19298e+04    1.14414e+02
 Position Rest.      Potential    Kinetic En.   Total Energy  Conserved En.
    1.60455e+01   -3.48719e+04    6.49131e+03   -2.83805e+04   -3.12682e+04
    Temperature Pressure (bar)   Constr. rmsd
    2.94003e+02    8.44681e+02    7.25410e-07

           Step           Time
          39000       39.00000

   Energies (kJ/mol)
           Bond            U-B    Proper Dih.  Improper Dih.      CMAP Dih.
    2.91914e+01    5.02139e+01    4.64621e+01    1.08385e+00   -7.78001e+00
          LJ-14     Coulomb-14        LJ (SR)   Coulomb (SR)   Coul. recip.
    4.41272e+00    1.13045e+03    5.47611e+03   -4.17680e+04    1.19242e+02
 Position Rest.      Potential    Kinetic En.   Total Energy  Conserved En.
    1.84926e+01   -3.49001e+04    6.58972e+03   -2.83104e+04   -3.12690e+04
    Temperature Pressure (bar)   Constr. rmsd
    2.98460e+02    5.14623e+01    7.23679e-07

           Step           Time
          40000       40.00000

   Energies (kJ/mol)
           Bond            U-B    Proper Dih.  Improper Dih.      CMAP Dih.
    2.09493e+01    5.64035e+01    4.88535e+01    2.20706e+00   -6.67898e+00
          LJ-14     Coulomb-14        LJ (SR)   Coulomb (SR)   Coul. recip.
    2.18957e+00    1.12325e+03    5.31368e+03   -4.17888e+04    1.27600e+02
 Position Rest.      Potential    Kinetic En.   Total Energy  Conserved En.
    1.68525e+01   -3.50835e+04    6.38109e+03   -2.87024e+04   -3.12683e+04
    Temperature Pressure (bar)   Constr. rmsd
    2.89011e+02   -2.81842e+02    7.27280e-07

           Step           Time
          41000       41.00000

   Energies (kJ/mol)
           Bond            U-B    Proper Dih.  Improper Dih.      CMAP Dih.
    1.85879e+01    6.38297e+01    4.43317e+01    4.86303e+00   -6.17719e+00
          LJ-14     Coulomb-14        LJ (SR)   Coulomb (SR)   Coul. recip.
    7.77716e+00    1.12727e+03    5.35504e+03   -4.15354e+04    1.15243e+02
 Position Rest.      Potential    Kinetic En.   Total Energy  Conserved En.
    4.88188e+00   -3.47998e+04    6.70741e+03   -2.80923e+04   -3.12697e+04
    Temperature Pressure (bar)   Constr. rmsd
    3.03791e+02    5.62288e+01    4.60563e-07

           Step           Time
          42000       42.00000

   Energies (kJ/mol)
           Bond            U-B    Proper Dih.  Improper Dih.      CMAP Dih.
    1.83711e+01    4.07192e+01    3.98036e+01    1.83145e+00   -1.06193e+00
          LJ-14     Coulomb-14        LJ (SR)   Coulomb (SR)   Coul. recip.
    9.87781e+00    1.14095e+03    5.36546e+03   -4.15482e+04    1.10325e+02
 Position Rest.      Potential    Kinetic En.   Total Energy  Conserved En.
    1.66297e+01   -3.48053e+04    6.83179e+03   -2.79735e+04   -3.12702e+04
    Temperature Pressure (bar)   Constr. rmsd
    3.09424e+02    8.59750e+01    5.60075e-07

           Step           Time
          43000       43.00000

   Energies (kJ/mol)
           Bond            U-B    Proper Dih.  Improper Dih.      CMAP Dih.
    1.05890e+01    6.29588e+01    4.76879e+01    3.25611e+00   -7.78336e+00
          LJ-14     Coulomb-14        LJ (SR)   Coulomb (SR)   Coul. recip.
    2.72699e+00    1.14841e+03    4.99235e+03   -4.11099e+04    1.15834e+02
 Position Rest.      Potential    Kinetic En.   Total Energy  Conserved En.
    1.63847e+01   -3.47175e+04    6.68237e+03   -2.80352e+04   -3.12709e+04
    Temperature Pressure (bar)   Constr. rmsd
    3.02656e+02   -6.02763e+02    9.77161e-07

           Step           Time
          44000       44.00000

   Energies (kJ/mol)
           Bond            U-B    Proper Dih.  Improper Dih.      CMAP Dih.
    2.02030e+01    5.81158e+01    4.59438e+01    3.19834e+00   -6.34657e+00
          LJ-14     Coulomb-14        LJ (SR)   Coulomb (SR)   Coul. recip.
    3.82238e+00    1.13873e+03    5.51311e+03   -4.16182e+04    1.23250e+02
 Position Rest.      Potential    Kinetic En.   Total Energy  Conserved En.
    1.13550e+01   -3.47068e+04    6.77603e+03   -2.79308e+04   -3.12713e+04
    Temperature Pressure (bar)   Constr. rmsd
    3.06899e+02    3.26635e+02    6.01109e-07

           Step           Time
          45000       45.00000

   Energies (kJ/mol)
           Bond            U-B    Proper Dih.  Improper Dih.      CMAP Dih.
    1.73975e+01    6.20668e+01    4.81272e+01    3.18747e+00   -5.96764e+00
          LJ-14     Coulomb-14        LJ (SR)   Coulomb (SR)   Coul. recip.
    1.10987e+01    1.13391e+03    5.23452e+03   -4.14424e+04    1.34659e+02
 Position Rest.      Potential    Kinetic En.   Total Energy  Conserved En.
    1.17650e+01   -3.47916e+04    6.73702e+03   -2.80546e+04   -3.12726e+04
    Temperature Pressure (bar)   Constr. rmsd
    3.05132e+02    1.36559e+01    5.56894e-07

           Step           Time
          46000       46.00000

   Energies (kJ/mol)
           Bond            U-B    Proper Dih.  Improper Dih.      CMAP Dih.
    2.37894e+01    6.10520e+01    4.32610e+01    1.35973e+00   -7.37083e+00
          LJ-14     Coulomb-14        LJ (SR)   Coulomb (SR)   Coul. recip.
    7.46132e+00    1.13682e+03    5.20745e+03   -4.15108e+04    1.34243e+02
 Position Rest.      Potential    Kinetic En.   Total Energy  Conserved En.
    2.60567e+01   -3.48766e+04    6.87209e+03   -2.80045e+04   -3.12740e+04
    Temperature Pressure (bar)   Constr. rmsd
    3.11249e+02   -4.95784e+02    5.53695e-07

           Step           Time
          47000       47.00000

   Energies (kJ/mol)
           Bond            U-B    Proper Dih.  Improper Dih.      CMAP Dih.
    1.83093e+01    7.37011e+01    4.23643e+01    5.01393e+00   -5.68651e+00
          LJ-14     Coulomb-14        LJ (SR)   Coulomb (SR)   Coul. recip.
    1.05850e+01    1.15646e+03    5.50111e+03   -4.18688e+04    1.36868e+02
 Position Rest.      Potential    Kinetic En.   Total Energy  Conserved En.
    1.50848e+01   -3.49150e+04    6.46309e+03   -2.84519e+04   -3.12725e+04
    Temperature Pressure (bar)   Constr. rmsd
    2.92725e+02    1.89324e+02    6.22962e-07

           Step           Time
          48000       48.00000

   Energies (kJ/mol)
           Bond            U-B    Proper Dih.  Improper Dih.      CMAP Dih.
    2.04863e+01    7.94403e+01    4.90897e+01    1.06998e+01   -7.33489e+00
          LJ-14     Coulomb-14        LJ (SR)   Coulomb (SR)   Coul. recip.
    5.52116e+00    1.13746e+03    5.26367e+03   -4.15915e+04    1.52581e+02
 Position Rest.      Potential    Kinetic En.   Total Energy  Conserved En.
    1.67332e+01   -3.48632e+04    6.80405e+03   -2.80591e+04   -3.12738e+04
    Temperature Pressure (bar)   Constr. rmsd
    3.08168e+02   -8.61457e+01    7.23679e-07

           Step           Time
          49000       49.00000

   Energies (kJ/mol)
           Bond            U-B    Proper Dih.  Improper Dih.      CMAP Dih.
    2.36804e+01    5.50302e+01    4.57046e+01    4.17152e+00   -7.68666e+00
          LJ-14     Coulomb-14        LJ (SR)   Coulomb (SR)   Coul. recip.
    4.28442e+00    1.12866e+03    5.25958e+03   -4.15703e+04    1.21322e+02
 Position Rest.      Potential    Kinetic En.   Total Energy  Conserved En.
    1.27373e+01   -3.49228e+04    6.53347e+03   -2.83893e+04   -3.12748e+04
    Temperature Pressure (bar)   Constr. rmsd
    2.95913e+02   -5.09951e+02    7.59056e-07

           Step           Time
          50000       50.00000

   Energies (kJ/mol)
           Bond            U-B    Proper Dih.  Improper Dih.      CMAP Dih.
    1.87701e+01    5.23911e+01    5.11002e+01    3.09127e+00   -6.40518e+00
          LJ-14     Coulomb-14        LJ (SR)   Coulomb (SR)   Coul. recip.
    3.85589e+00    1.12328e+03    5.36449e+03   -4.18231e+04    1.23790e+02
 Position Rest.      Potential    Kinetic En.   Total Energy  Conserved En.
    9.60269e+00   -3.50791e+04    6.49890e+03   -2.85802e+04   -3.12748e+04
    Temperature Pressure (bar)   Constr. rmsd
    2.94347e+02   -1.71629e+02    8.04630e-07

           Step           Time
          51000       51.00000

   Energies (kJ/mol)
           Bond            U-B    Proper Dih.  Improper Dih.      CMAP Dih.
    1.80398e+01    8.15918e+01    4.49609e+01    2.40515e+00   -7.81612e+00
          LJ-14     Coulomb-14        LJ (SR)   Coulomb (SR)   Coul. recip.
    6.31454e+00    1.13317e+03    5.31533e+03   -4.15764e+04    1.42571e+02
 Position Rest.      Potential    Kinetic En.   Total Energy  Conserved En.
    1.05422e+01   -3.48292e+04    6.70440e+03   -2.81248e+04   -3.12758e+04
    Temperature Pressure (bar)   Constr. rmsd
    3.03654e+02   -7.02776e+01    6.06301e-07

           Step           Time
          52000       52.00000

   Energies (kJ/mol)
           Bond            U-B    Proper Dih.  Improper Dih.      CMAP Dih.
    2.47582e+01    8.42566e+01    4.85271e+01    1.47137e+00   -6.50801e+00
          LJ-14     Coulomb-14        LJ (SR)   Coulomb (SR)   Coul. recip.
    2.76071e+00    1.14225e+03    5.66142e+03   -4.19164e+04    1.31503e+02
 Position Rest.      Potential    Kinetic En.   Total Energy  Conserved En.
    8.94281e+00   -3.48170e+04    6.59643e+03   -2.82206e+04   -3.12766e+04
    Temperature Pressure (bar)   Constr. rmsd
    2.98764e+02    4.40508e+02    5.54826e-07

           Step           Time
          53000       53.00000

   Energies (kJ/mol)
           Bond            U-B    Proper Dih.  Improper Dih.      CMAP Dih.
    2.28970e+01    7.16119e+01    5.81400e+01    4.62883e+00   -7.71907e+00
          LJ-14     Coulomb-14        LJ (SR)   Coulomb (SR)   Coul. recip.
    9.18956e+00    1.15724e+03    5.40226e+03   -4.14155e+04    1.54480e+02
 Position Rest.      Potential    Kinetic En.   Total Energy  Conserved En.
    1.51440e+01   -3.45276e+04    6.63631e+03   -2.78913e+04   -3.12763e+04
    Temperature Pressure (bar)   Constr. rmsd
    3.00571e+02    1.71931e+02    6.30962e-07

           Step           Time
          54000       54.00000

   Energies (kJ/mol)
           Bond            U-B    Proper Dih.  Improper Dih.      CMAP Dih.
    2.82418e+01    6.71626e+01    4.52775e+01    2.80822e+00   -5.41136e+00
          LJ-14     Coulomb-14        LJ (SR)   Coulomb (SR)   Coul. recip.
    8.05068e+00    1.11389e+03    5.39538e+03   -4.20762e+04    1.04911e+02
 Position Rest.      Potential    Kinetic En.   Total Energy  Conserved En.
    1.83897e+01   -3.52975e+04    6.71595e+03   -2.85815e+04   -3.12772e+04
    Temperature Pressure (bar)   Constr. rmsd
    3.04177e+02   -2.17181e+02    8.88912e-07

           Step           Time
          55000       55.00000

   Energies (kJ/mol)
           Bond            U-B    Proper Dih.  Improper Dih.      CMAP Dih.
    3.32467e+01    5.43881e+01    5.19990e+01    2.94853e+00   -7.20515e+00
          LJ-14     Coulomb-14        LJ (SR)   Coulomb (SR)   Coul. recip.
    6.57269e+00    1.12432e+03    5.55101e+03   -4.21964e+04    1.15489e+02
 Position Rest.      Potential    Kinetic En.   Total Energy  Conserved En.
    2.05359e+01   -3.52431e+04    6.70343e+03   -2.85396e+04   -3.12777e+04
    Temperature Pressure (bar)   Constr. rmsd
    3.03610e+02    4.55375e+00    8.34966e-07

           Step           Time
          56000       56.00000

   Energies (kJ/mol)
           Bond            U-B    Proper Dih.  Improper Dih.      CMAP Dih.
    1.84369e+01    4.29842e+01    4.40357e+01    3.78601e-01   -7.79455e+00
          LJ-14     Coulomb-14        LJ (SR)   Coulomb (SR)   Coul. recip.
    9.64338e+00    1.15680e+03    5.74202e+03   -4.22382e+04    1.21593e+02
 Position Rest.      Potential    Kinetic En.   Total Energy  Conserved En.
    1.41414e+01   -3.50959e+04    6.86356e+03   -2.82324e+04   -3.12793e+04
    Temperature Pressure (bar)   Constr. rmsd
    3.10863e+02    7.46517e+02    9.26554e-07

           Step           Time
          57000       57.00000

   Energies (kJ/mol)
           Bond            U-B    Proper Dih.  Improper Dih.      CMAP Dih.
    2.51806e+01    4.93684e+01    5.20409e+01    3.97068e+00   -6.67765e+00
          LJ-14     Coulomb-14        LJ (SR)   Coulomb (SR)   Coul. recip.
    6.32006e+00    1.14775e+03    5.49622e+03   -4.21311e+04    1.39236e+02
 Position Rest.      Potential    Kinetic En.   Total Energy  Conserved En.
    3.15944e+01   -3.51861e+04    6.77527e+03   -2.84109e+04   -3.12791e+04
    Temperature Pressure (bar)   Constr. rmsd
    3.06864e+02   -2.56047e+02    6.79290e-07

           Step           Time
          58000       58.00000

   Energies (kJ/mol)
           Bond            U-B    Proper Dih.  Improper Dih.      CMAP Dih.
    2.69987e+01    5.42159e+01    5.50044e+01    5.28757e+00   -6.93223e+00
          LJ-14     Coulomb-14        LJ (SR)   Coulomb (SR)   Coul. recip.
    8.31486e+00    1.13462e+03    5.22664e+03   -4.16407e+04    1.15876e+02
 Position Rest.      Potential    Kinetic En.   Total Energy  Conserved En.
    1.04444e+01   -3.50103e+04    6.54702e+03   -2.84633e+04   -3.12795e+04
    Temperature Pressure (bar)   Constr. rmsd
    2.96526e+02   -4.16469e+02    7.57954e-07

           Step           Time
          59000       59.00000

   Energies (kJ/mol)
           Bond            U-B    Proper Dih.  Improper Dih.      CMAP Dih.
    1.93293e+01    6.11453e+01    4.51163e+01    3.06134e+00   -7.68114e+00
          LJ-14     Coulomb-14        LJ (SR)   Coulomb (SR)   Coul. recip.
    8.14423e+00    1.14072e+03    5.56921e+03   -4.21511e+04    1.18954e+02
 Position Rest.      Potential    Kinetic En.   Total Energy  Conserved En.
    9.67497e+00   -3.51835e+04    6.49920e+03   -2.86843e+04   -3.12790e+04
    Temperature Pressure (bar)   Constr. rmsd
    2.94360e+02    2.18157e+02    7.74186e-07

           Step           Time
          60000       60.00000

   Energies (kJ/mol)
           Bond            U-B    Proper Dih.  Improper Dih.      CMAP Dih.
    3.64767e+01    3.57093e+01    4.30343e+01    5.08623e+00   -7.77763e+00
          LJ-14     Coulomb-14        LJ (SR)   Coulomb (SR)   Coul. recip.
    7.45613e+00    1.13252e+03    5.29595e+03   -4.16833e+04    1.21162e+02
 Position Rest.      Potential    Kinetic En.   Total Energy  Conserved En.
    2.03987e+01   -3.49933e+04    6.55561e+03   -2.84377e+04   -3.12798e+04
    Temperature Pressure (bar)   Constr. rmsd
    2.96915e+02   -5.02041e+02    4.95535e-07

           Step           Time
          61000       61.00000

   Energies (kJ/mol)
           Bond            U-B    Proper Dih.  Improper Dih.      CMAP Dih.
    2.76801e+01    6.62387e+01    4.31024e+01    4.97283e+00   -7.78535e+00
          LJ-14     Coulomb-14        LJ (SR)   Coulomb (SR)   Coul. recip.
    4.46137e+00    1.10561e+03    5.65162e+03   -4.23582e+04    1.26403e+02
 Position Rest.      Potential    Kinetic En.   Total Energy  Conserved En.
    1.66243e+01   -3.53192e+04    6.80748e+03   -2.85118e+04   -3.12798e+04
    Temperature Pressure (bar)   Constr. rmsd
    3.08323e+02    2.51244e+02    8.54877e-07

           Step           Time
          62000       62.00000

   Energies (kJ/mol)
           Bond            U-B    Proper Dih.  Improper Dih.      CMAP Dih.
    1.13024e+01    6.73111e+01    3.69935e+01    5.31983e+00   -7.93270e+00
          LJ-14     Coulomb-14        LJ (SR)   Coulomb (SR)   Coul. recip.
    8.40149e+00    1.12694e+03    5.53703e+03   -4.20193e+04    1.28722e+02
 Position Rest.      Potential    Kinetic En.   Total Energy  Conserved En.
    2.39314e+01   -3.50812e+04    6.33880e+03   -2.87424e+04   -3.12800e+04
    Temperature Pressure (bar)   Constr. rmsd
    2.87096e+02    3.88766e+02    6.97804e-07

           Step           Time
          63000       63.00000

   Energies (kJ/mol)
           Bond            U-B    Proper Dih.  Improper Dih.      CMAP Dih.
    2.08634e+01    5.27054e+01    4.03999e+01    3.26246e+00   -6.87525e+00
          LJ-14     Coulomb-14        LJ (SR)   Coulomb (SR)   Coul. recip.
    7.97364e+00    1.15917e+03    5.31461e+03   -4.18476e+04    1.26713e+02
 Position Rest.      Potential    Kinetic En.   Total Energy  Conserved En.
    1.24692e+01   -3.51164e+04    6.44797e+03   -2.86684e+04   -3.12808e+04
    Temperature Pressure (bar)   Constr. rmsd
    2.92040e+02   -4.11671e+01    4.85523e-07

           Step           Time
          64000       64.00000

   Energies (kJ/mol)
           Bond            U-B    Proper Dih.  Improper Dih.      CMAP Dih.
    2.17401e+01    6.54148e+01    4.70071e+01    3.67406e+00   -2.52048e+00
          LJ-14     Coulomb-14        LJ (SR)   Coulomb (SR)   Coul. recip.
    5.97880e+00    1.10608e+03    5.46786e+03   -4.21360e+04    1.29546e+02
 Position Rest.      Potential    Kinetic En.   Total Energy  Conserved En.
    1.18625e+01   -3.52793e+04    6.79399e+03   -2.84853e+04   -3.12812e+04
    Temperature Pressure (bar)   Constr. rmsd
    3.07712e+02   -1.16471e+02    7.40239e-07

           Step           Time
          65000       65.00000

   Energies (kJ/mol)
           Bond            U-B    Proper Dih.  Improper Dih.      CMAP Dih.
    1.74971e+01    8.46874e+01    4.54546e+01    1.18977e+00   -7.18188e+00
          LJ-14     Coulomb-14        LJ (SR)   Coulomb (SR)   Coul. recip.
    5.17871e+00    1.12620e+03    5.58882e+03   -4.19013e+04    1.14006e+02
 Position Rest.      Potential    Kinetic En.   Total Energy  Conserved En.
    7.32142e+00   -3.49181e+04    6.57961e+03   -2.83385e+04   -3.12813e+04
    Temperature Pressure (bar)   Constr. rmsd
    2.98002e+02    3.08372e+02    6.42287e-07

           Step           Time
          66000       66.00000

   Energies (kJ/mol)
           Bond            U-B    Proper Dih.  Improper Dih.      CMAP Dih.
    2.51286e+01    6.95325e+01    4.86280e+01    2.72904e+00   -4.25289e+00
          LJ-14     Coulomb-14        LJ (SR)   Coulomb (SR)   Coul. recip.
    3.20843e+00    1.11818e+03    5.59041e+03   -4.18607e+04    1.35761e+02
 Position Rest.      Potential    Kinetic En.   Total Energy  Conserved En.
    1.01616e+01   -3.48612e+04    6.59199e+03   -2.82692e+04   -3.12813e+04
    Temperature Pressure (bar)   Constr. rmsd
    2.98563e+02    3.50549e+02    6.84805e-07

           Step           Time
          67000       67.00000

   Energies (kJ/mol)
           Bond            U-B    Proper Dih.  Improper Dih.      CMAP Dih.
    1.99899e+01    6.70984e+01    5.25537e+01    2.73839e+00   -7.54906e+00
          LJ-14     Coulomb-14        LJ (SR)   Coulomb (SR)   Coul. recip.
    4.93185e+00    1.11471e+03    5.26890e+03   -4.14375e+04    1.22768e+02
 Position Rest.      Potential    Kinetic En.   Total Energy  Conserved En.
    1.85983e+01   -3.47727e+04    6.69232e+03   -2.80804e+04   -3.12844e+04
    Temperature Pressure (bar)   Constr. rmsd
    3.03107e+02   -2.79662e+02    7.00196e-07

           Step           Time
          68000       68.00000

   Energies (kJ/mol)
           Bond            U-B    Proper Dih.  Improper Dih.      CMAP Dih.
    1.39359e+01    4.86141e+01    5.00502e+01    3.83065e+00   -6.84324e+00
          LJ-14     Coulomb-14        LJ (SR)   Coulomb (SR)   Coul. recip.
    5.75745e+00    1.12604e+03    5.40952e+03   -4.16868e+04    1.28263e+02
 Position Rest.      Potential    Kinetic En.   Total Energy  Conserved En.
    1.34138e+01   -3.48942e+04    6.45942e+03   -2.84348e+04   -3.12840e+04
    Temperature Pressure (bar)   Constr. rmsd
    2.92559e+02   -5.75577e-01    7.12035e-07

           Step           Time
          69000       69.00000

   Energies (kJ/mol)
           Bond            U-B    Proper Dih.  Improper Dih.      CMAP Dih.
    2.81093e+01    6.82783e+01    5.26767e+01    5.08151e+00   -5.15101e+00
          LJ-14     Coulomb-14        LJ (SR)   Coulomb (SR)   Coul. recip.
    5.28167e+00    1.13414e+03    5.65949e+03   -4.20618e+04    1.26374e+02
 Position Rest.      Potential    Kinetic En.   Total Energy  Conserved En.
    1.31116e+01   -3.49744e+04    6.58173e+03   -2.83927e+04   -3.12845e+04
    Temperature Pressure (bar)   Constr. rmsd
    2.98098e+02    5.95956e+02    5.03484e-07

           Step           Time
          70000       70.00000

   Energies (kJ/mol)
           Bond            U-B    Proper Dih.  Improper Dih.      CMAP Dih.
    2.36976e+01    6.34847e+01    4.22511e+01    3.36698e+00   -7.38892e+00
          LJ-14     Coulomb-14        LJ (SR)   Coulomb (SR)   Coul. recip.
    7.23880e+00    1.12531e+03    5.55531e+03   -4.20581e+04    1.18976e+02
 Position Rest.      Potential    Kinetic En.   Total Energy  Conserved En.
    7.25704e+00   -3.51185e+04    6.68141e+03   -2.84371e+04   -3.12851e+04
    Temperature Pressure (bar)   Constr. rmsd
    3.02613e+02    1.63287e+02    6.30133e-07

           Step           Time
          71000       71.00000

   Energies (kJ/mol)
           Bond            U-B    Proper Dih.  Improper Dih.      CMAP Dih.
    1.76251e+01    7.72106e+01    4.65139e+01    5.42382e+00   -7.73373e+00
          LJ-14     Coulomb-14        LJ (SR)   Coulomb (SR)   Coul. recip.
    4.35356e+00    1.11076e+03    5.45623e+03   -4.17483e+04    1.21809e+02
 Position Rest.      Potential    Kinetic En.   Total Energy  Conserved En.
    1.89485e+01   -3.48971e+04    6.81400e+03   -2.80831e+04   -3.12867e+04
    Temperature Pressure (bar)   Constr. rmsd
    3.08618e+02    1.90895e+02    7.71888e-07

           Step           Time
          72000       72.00000

   Energies (kJ/mol)
           Bond            U-B    Proper Dih.  Improper Dih.      CMAP Dih.
    1.84717e+01    7.20981e+01    4.88467e+01    3.95886e+00   -7.74697e+00
          LJ-14     Coulomb-14        LJ (SR)   Coulomb (SR)   Coul. recip.
    5.53768e+00    1.10108e+03    5.37065e+03   -4.16600e+04    1.18286e+02
 Position Rest.      Potential    Kinetic En.   Total Energy  Conserved En.
    1.73319e+01   -3.49115e+04    6.18807e+03   -2.87234e+04   -3.12860e+04
    Temperature Pressure (bar)   Constr. rmsd
    2.80269e+02   -3.41631e+02    8.02420e-07

           Step           Time
          73000       73.00000

   Energies (kJ/mol)
           Bond            U-B    Proper Dih.  Improper Dih.      CMAP Dih.
    2.08308e+01    7.51924e+01    4.74994e+01    5.06212e+00   -2.19613e+00
          LJ-14     Coulomb-14        LJ (SR)   Coulomb (SR)   Coul. recip.
    1.19380e+01    1.15776e+03    5.18998e+03   -4.13875e+04    1.12549e+02
 Position Rest.      Potential    Kinetic En.   Total Energy  Conserved En.
    1.68215e+01   -3.47521e+04    6.58185e+03   -2.81703e+04   -3.12863e+04
    Temperature Pressure (bar)   Constr. rmsd
    2.98104e+02   -1.90907e+02    9.67381e-07

           Step           Time
          74000       74.00000

   Energies (kJ/mol)
           Bond            U-B    Proper Dih.  Improper Dih.      CMAP Dih.
    1.92879e+01    4.77525e+01    4.65428e+01    4.42804e+00   -3.84222e+00
          LJ-14     Coulomb-14        LJ (SR)   Coulomb (SR)   Coul. recip.
    6.95904e+00    1.14167e+03    5.55570e+03   -4.21220e+04    1.27345e+02
 Position Rest.      Potential    Kinetic En.   Total Energy  Conserved En.
    1.13445e+01   -3.51648e+04    6.69234e+03   -2.84725e+04   -3.12865e+04
    Temperature Pressure (bar)   Constr. rmsd
    3.03108e+02   -7.21892e+01    7.31149e-07

           Step           Time
          75000       75.00000

   Energies (kJ/mol)
           Bond            U-B    Proper Dih.  Improper Dih.      CMAP Dih.
    2.07991e+01    7.06759e+01    4.99294e+01    6.16574e+00   -6.89721e+00
          LJ-14     Coulomb-14        LJ (SR)   Coulomb (SR)   Coul. recip.
    5.45366e+00    1.12621e+03    5.25143e+03   -4.17106e+04    1.25575e+02
 Position Rest.      Potential    Kinetic En.   Total Energy  Conserved En.
    1.52165e+01   -3.50461e+04    6.71073e+03   -2.83354e+04   -3.12870e+04
    Temperature Pressure (bar)   Constr. rmsd
    3.03941e+02   -4.20356e+02    7.95882e-07

           Step           Time
          76000       76.00000

   Energies (kJ/mol)
           Bond            U-B    Proper Dih.  Improper Dih.      CMAP Dih.
    2.08590e+01    6.18483e+01    4.18652e+01    9.03662e+00   -8.11923e-01
          LJ-14     Coulomb-14        LJ (SR)   Coulomb (SR)   Coul. recip.
    8.18775e+00    1.16015e+03    5.46735e+03   -4.20313e+04    1.21015e+02
 Position Rest.      Potential    Kinetic En.   Total Energy  Conserved En.
    2.28702e+01   -3.51189e+04    6.89382e+03   -2.82251e+04   -3.12884e+04
    Temperature Pressure (bar)   Constr. rmsd
    3.12234e+02   -1.34151e+02    5.17000e-07

           Step           Time
          77000       77.00000

   Energies (kJ/mol)
           Bond            U-B    Proper Dih.  Improper Dih.      CMAP Dih.
    8.70937e+00    5.56672e+01    5.64820e+01    2.44703e+00   -4.37831e+00
          LJ-14     Coulomb-14        LJ (SR)   Coulomb (SR)   Coul. recip.
    7.89128e+00    1.14530e+03    5.68856e+03   -4.23415e+04    1.19401e+02
 Position Rest.      Potential    Kinetic En.   Total Energy  Conserved En.
    1.27304e+01   -3.52487e+04    6.40381e+03   -2.88449e+04   -3.12870e+04
    Temperature Pressure (bar)   Constr. rmsd
    2.90040e+02    5.60979e+02    6.69217e-07

           Step           Time
          78000       78.00000

   Energies (kJ/mol)
           Bond            U-B    Proper Dih.  Improper Dih.      CMAP Dih.
    1.96881e+01    5.82600e+01    5.40709e+01    5.07501e+00   -6.14957e+00
          LJ-14     Coulomb-14        LJ (SR)   Coulomb (SR)   Coul. recip.
    4.14839e+00    1.12230e+03    5.44856e+03   -4.16886e+04    1.22858e+02
 Position Rest.      Potential    Kinetic En.   Total Energy  Conserved En.
    1.05148e+01   -3.48493e+04    6.46088e+03   -2.83884e+04   -3.12881e+04
    Temperature Pressure (bar)   Constr. rmsd
    2.92625e+02    2.24461e+02    8.08129e-07

           Step           Time
          79000       79.00000

   Energies (kJ/mol)
           Bond            U-B    Proper Dih.  Improper Dih.      CMAP Dih.
    3.32439e+01    7.81677e+01    5.64079e+01    3.09016e+00   -7.39610e+00
          LJ-14     Coulomb-14        LJ (SR)   Coulomb (SR)   Coul. recip.
    5.20745e+00    1.08880e+03    5.32040e+03   -4.18036e+04    1.25393e+02
 Position Rest.      Potential    Kinetic En.   Total Energy  Conserved En.
    1.52773e+01   -3.50850e+04    6.60997e+03   -2.84750e+04   -3.12879e+04
    Temperature Pressure (bar)   Constr. rmsd
    2.99377e+02   -5.02128e+02    8.70502e-07

           Step           Time
          80000       80.00000

   Energies (kJ/mol)
           Bond            U-B    Proper Dih.  Improper Dih.      CMAP Dih.
    1.74585e+01    5.57514e+01    4.86468e+01    8.17161e+00   -7.26936e+00
          LJ-14     Coulomb-14        LJ (SR)   Coulomb (SR)   Coul. recip.
    8.69023e+00    1.15491e+03    5.48880e+03   -4.19049e+04    1.52000e+02
 Position Rest.      Potential    Kinetic En.   Total Energy  Conserved En.
    8.00654e+00   -3.49697e+04    6.77892e+03   -2.81908e+04   -3.12889e+04
    Temperature Pressure (bar)   Constr. rmsd
    3.07029e+02    2.31552e+02    1.16953e-06

           Step           Time
          81000       81.00000

   Energies (kJ/mol)
           Bond            U-B    Proper Dih.  Improper Dih.      CMAP Dih.
    2.51554e+01    8.90519e+01    4.76898e+01    5.47887e+00   -7.30921e+00
          LJ-14     Coulomb-14        LJ (SR)   Coulomb (SR)   Coul. recip.
    1.24547e+00    1.09366e+03    5.39805e+03   -4.16960e+04    1.07530e+02
 Position Rest.      Potential    Kinetic En.   Total Energy  Conserved En.
    1.67674e+01   -3.49187e+04    6.57553e+03   -2.83432e+04   -3.12889e+04
    Temperature Pressure (bar)   Constr. rmsd
    2.97818e+02   -8.12437e+01    8.03070e-07

           Step           Time
          82000       82.00000

   Energies (kJ/mol)
           Bond            U-B    Proper Dih.  Improper Dih.      CMAP Dih.
    2.62862e+01    7.78344e+01    4.45200e+01    4.79743e-01   -6.50588e+00
          LJ-14     Coulomb-14        LJ (SR)   Coulomb (SR)   Coul. recip.
    6.72252e+00    1.10701e+03    5.28513e+03   -4.17182e+04    1.27581e+02
 Position Rest.      Potential    Kinetic En.   Total Energy  Conserved En.
    1.62724e+01   -3.50328e+04    6.59020e+03   -2.84426e+04   -3.12897e+04
    Temperature Pressure (bar)   Constr. rmsd
    2.98482e+02   -2.01595e+02    7.41227e-07

           Step           Time
          83000       83.00000

   Energies (kJ/mol)
           Bond            U-B    Proper Dih.  Improper Dih.      CMAP Dih.
    2.98309e+01    5.24363e+01    4.37919e+01    3.41017e+00   -7.60674e+00
          LJ-14     Coulomb-14        LJ (SR)   Coulomb (SR)   Coul. recip.
    1.53214e+01    1.14744e+03    5.26652e+03   -4.18527e+04    1.15195e+02
 Position Rest.      Potential    Kinetic En.   Total Energy  Conserved En.
    2.13253e+01   -3.51651e+04    6.51502e+03   -2.86500e+04   -3.12905e+04
    Temperature Pressure (bar)   Constr. rmsd
    2.95077e+02   -4.21288e+02    6.96155e-07

           Step           Time
          84000       84.00000

   Energies (kJ/mol)
           Bond            U-B    Proper Dih.  Improper Dih.      CMAP Dih.
    3.28894e+01    6.75890e+01    5.10708e+01    5.84045e+00   -6.98722e+00
          LJ-14     Coulomb-14        LJ (SR)   Coulomb (SR)   Coul. recip.
    7.68643e+00    1.16901e+03    5.36883e+03   -4.19742e+04    1.14731e+02
 Position Rest.      Potential    Kinetic En.   Total Energy  Conserved En.
    1.47163e+01   -3.51488e+04    6.66037e+03   -2.84884e+04   -3.12910e+04
    Temperature Pressure (bar)   Constr. rmsd
    3.01660e+02   -5.07750e+02    5.40710e-07

           Step           Time
          85000       85.00000

   Energies (kJ/mol)
           Bond            U-B    Proper Dih.  Improper Dih.      CMAP Dih.
    1.98284e+01    7.48401e+01    4.70750e+01    2.20988e+00   -7.91870e+00
          LJ-14     Coulomb-14        LJ (SR)   Coulomb (SR)   Coul. recip.
    6.81851e+00    1.14750e+03    5.35083e+03   -4.16386e+04    1.30591e+02
 Position Rest.      Potential    Kinetic En.   Total Energy  Conserved En.
    1.11643e+01   -3.48556e+04    6.74656e+03   -2.81091e+04   -3.12918e+04
    Temperature Pressure (bar)   Constr. rmsd
    3.05564e+02    5.92555e+01    6.79598e-07

           Step           Time
          86000       86.00000

   Energies (kJ/mol)
           Bond            U-B    Proper Dih.  Improper Dih.      CMAP Dih.
    2.09677e+01    7.66704e+01    4.55413e+01    3.19716e+00   -7.91213e+00
          LJ-14     Coulomb-14        LJ (SR)   Coulomb (SR)   Coul. recip.
    5.23005e+00    1.13230e+03    5.70815e+03   -4.22701e+04    1.54253e+02
 Position Rest.      Potential    Kinetic En.   Total Energy  Conserved En.
    2.15178e+01   -3.51102e+04    6.48210e+03   -2.86281e+04   -3.12913e+04
    Temperature Pressure (bar)   Constr. rmsd
    2.93586e+02    4.06475e+02    7.38826e-07

           Step           Time
          87000       87.00000

   Energies (kJ/mol)
           Bond            U-B    Proper Dih.  Improper Dih.      CMAP Dih.
    1.26614e+01    4.97654e+01    4.87567e+01    8.48682e+00   -6.80958e+00
          LJ-14     Coulomb-14        LJ (SR)   Coulomb (SR)   Coul. recip.
    7.08927e+00    1.13331e+03    5.19296e+03   -4.15877e+04    1.21378e+02
 Position Rest.      Potential    Kinetic En.   Total Energy  Conserved En.
    2.69617e+01   -3.49931e+04    6.70448e+03   -2.82886e+04   -3.12940e+04
    Temperature Pressure (bar)   Constr. rmsd
    3.03658e+02   -2.59000e+02    5.41868e-07

           Step           Time
          88000       88.00000

   Energies (kJ/mol)
           Bond            U-B    Proper Dih.  Improper Dih.      CMAP Dih.
    2.44721e+01    7.44206e+01    4.98677e+01    5.13064e+00   -4.34203e-01
          LJ-14     Coulomb-14        LJ (SR)   Coulomb (SR)   Coul. recip.
    9.59915e+00    1.15670e+03    5.53037e+03   -4.17266e+04    1.32756e+02
 Position Rest.      Potential    Kinetic En.   Total Energy  Conserved En.
    2.12943e+01   -3.47225e+04    6.66395e+03   -2.80585e+04   -3.12943e+04
    Temperature Pressure (bar)   Constr. rmsd
    3.01822e+02    6.23990e+02    8.37590e-07

           Step           Time
          89000       89.00000

   Energies (kJ/mol)
           Bond            U-B    Proper Dih.  Improper Dih.      CMAP Dih.
    2.22215e+01    5.91650e+01    4.81986e+01    3.71400e+00   -7.37265e+00
          LJ-14     Coulomb-14        LJ (SR)   Coulomb (SR)   Coul. recip.
    1.21282e+01    1.14734e+03    5.64984e+03   -4.23712e+04    1.21252e+02
 Position Rest.      Potential    Kinetic En.   Total Energy  Conserved En.
    2.23911e+01   -3.52923e+04    6.53650e+03   -2.87558e+04   -3.12938e+04
    Temperature Pressure (bar)   Constr. rmsd
    2.96050e+02    3.42914e+02    6.03538e-07

           Step           Time
          90000       90.00000

   Energies (kJ/mol)
           Bond            U-B    Proper Dih.  Improper Dih.      CMAP Dih.
    2.20605e+01    5.57851e+01    5.01647e+01    4.01715e+00   -6.13915e+00
          LJ-14     Coulomb-14        LJ (SR)   Coulomb (SR)   Coul. recip.
    1.14068e+01    1.15704e+03    5.08219e+03   -4.13305e+04    1.17813e+02
 Position Rest.      Potential    Kinetic En.   Total Energy  Conserved En.
    9.25878e+00   -3.48269e+04    6.44955e+03   -2.83773e+04   -3.12939e+04
    Temperature Pressure (bar)   Constr. rmsd
    2.92111e+02   -4.06646e+02    7.20931e-07

           Step           Time
          91000       91.00000

   Energies (kJ/mol)
           Bond            U-B    Proper Dih.  Improper Dih.      CMAP Dih.
    1.73121e+01    5.18136e+01    4.43799e+01    1.15448e+01   -5.17458e+00
          LJ-14     Coulomb-14        LJ (SR)   Coulomb (SR)   Coul. recip.
    7.90833e+00    1.12572e+03    5.17617e+03   -4.12432e+04    1.32365e+02
 Position Rest.      Potential    Kinetic En.   Total Energy  Conserved En.
    2.15981e+01   -3.46596e+04    6.82072e+03   -2.78388e+04   -3.12948e+04
    Temperature Pressure (bar)   Constr. rmsd
    3.08923e+02   -1.07771e+02    6.14178e-07

           Step           Time
          92000       92.00000

   Energies (kJ/mol)
           Bond            U-B    Proper Dih.  Improper Dih.      CMAP Dih.
    1.42096e+01    5.77669e+01    5.41022e+01    4.65880e+00   -7.37966e+00
          LJ-14     Coulomb-14        LJ (SR)   Coulomb (SR)   Coul. recip.
    6.53693e+00    1.15761e+03    5.45630e+03   -4.21373e+04    1.36075e+02
 Position Rest.      Potential    Kinetic En.   Total Energy  Conserved En.
    2.03272e+01   -3.52370e+04    6.54375e+03   -2.86933e+04   -3.12949e+04
    Temperature Pressure (bar)   Constr. rmsd
    2.96378e+02   -6.40990e+01    6.29470e-07

           Step           Time
          93000       93.00000

   Energies (kJ/mol)
           Bond            U-B    Proper Dih.  Improper Dih.      CMAP Dih.
    1.54237e+01    7.46921e+01    4.78027e+01    1.15995e+00   -6.99956e+00
          LJ-14     Coulomb-14        LJ (SR)   Coulomb (SR)   Coul. recip.
    3.51970e+00    1.14610e+03    5.87500e+03   -4.25151e+04    1.21384e+02
 Position Rest.      Potential    Kinetic En.   Total Energy  Conserved En.
    1.32315e+01   -3.52238e+04    6.67545e+03   -2.85484e+04   -3.12960e+04
    Temperature Pressure (bar)   Constr. rmsd
    3.02343e+02    6.94656e+02    5.81314e-07

           Step           Time
          94000       94.00000

   Energies (kJ/mol)
           Bond            U-B    Proper Dih.  Improper Dih.      CMAP Dih.
    7.01955e+00    4.74412e+01    4.68105e+01    4.62113e+00   -5.76114e+00
          LJ-14     Coulomb-14        LJ (SR)   Coulomb (SR)   Coul. recip.
    4.84992e+00    1.13940e+03    5.05648e+03   -4.11289e+04    1.21915e+02
 Position Rest.      Potential    Kinetic En.   Total Energy  Conserved En.
    7.17496e+00   -3.46989e+04    6.66381e+03   -2.80351e+04   -3.12965e+04
    Temperature Pressure (bar)   Constr. rmsd
    3.01816e+02   -4.60124e+02    7.28142e-07

           Step           Time
          95000       95.00000

   Energies (kJ/mol)
           Bond            U-B    Proper Dih.  Improper Dih.      CMAP Dih.
    1.26084e+01    7.08498e+01    4.58814e+01    1.19419e+01   -7.83421e+00
          LJ-14     Coulomb-14        LJ (SR)   Coulomb (SR)   Coul. recip.
    7.94359e+00    1.12716e+03    5.12339e+03   -4.16371e+04    1.16733e+02
 Position Rest.      Potential    Kinetic En.   Total Energy  Conserved En.
    2.00351e+01   -3.51084e+04    6.50710e+03   -2.86013e+04   -3.12961e+04
    Temperature Pressure (bar)   Constr. rmsd
    2.94718e+02   -7.69924e+02    8.89265e-07

           Step           Time
          96000       96.00000

   Energies (kJ/mol)
           Bond            U-B    Proper Dih.  Improper Dih.      CMAP Dih.
    1.26988e+01    6.98560e+01    5.60819e+01    4.82852e+00   -5.93514e+00
          LJ-14     Coulomb-14        LJ (SR)   Coulomb (SR)   Coul. recip.
    1.13750e+01    1.13176e+03    5.37210e+03   -4.17823e+04    1.29168e+02
 Position Rest.      Potential    Kinetic En.   Total Energy  Conserved En.
    9.54430e+00   -3.49909e+04    6.44898e+03   -2.85419e+04   -3.12961e+04
    Temperature Pressure (bar)   Constr. rmsd
    2.92086e+02    1.10843e+02    7.04510e-07

           Step           Time
          97000       97.00000

   Energies (kJ/mol)
           Bond            U-B    Proper Dih.  Improper Dih.      CMAP Dih.
    1.80783e+01    4.43854e+01    5.90602e+01    2.86688e+00   -6.83097e+00
          LJ-14     Coulomb-14        LJ (SR)   Coulomb (SR)   Coul. recip.
    5.40361e+00    1.11670e+03    5.18481e+03   -4.15568e+04    1.29023e+02
 Position Rest.      Potential    Kinetic En.   Total Energy  Conserved En.
    9.20724e+00   -3.49941e+04    6.43101e+03   -2.85631e+04   -3.12971e+04
    Temperature Pressure (bar)   Constr. rmsd
    2.91272e+02   -5.29407e+02    5.21227e-07

           Step           Time
          98000       98.00000

   Energies (kJ/mol)
           Bond            U-B    Proper Dih.  Improper Dih.      CMAP Dih.
    2.34226e+01    5.50724e+01    4.13567e+01    1.32625e+00   -5.85684e+00
          LJ-14     Coulomb-14        LJ (SR)   Coulomb (SR)   Coul. recip.
    8.17991e+00    1.17768e+03    5.62524e+03   -4.22680e+04    1.13966e+02
 Position Rest.      Potential    Kinetic En.   Total Energy  Conserved En.
    1.89104e+01   -3.52087e+04    6.52321e+03   -2.86855e+04   -3.12968e+04
    Temperature Pressure (bar)   Constr. rmsd
    2.95448e+02    1.92976e+02    6.21619e-07

           Step           Time
          99000       99.00000

   Energies (kJ/mol)
           Bond            U-B    Proper Dih.  Improper Dih.      CMAP Dih.
    1.58578e+01    6.29165e+01    5.28574e+01    2.92097e+00   -6.87594e+00
          LJ-14     Coulomb-14        LJ (SR)   Coulomb (SR)   Coul. recip.
    4.00920e+00    1.12310e+03    5.60862e+03   -4.18129e+04    1.16660e+02
 Position Rest.      Potential    Kinetic En.   Total Energy  Conserved En.
    9.68734e+00   -3.48231e+04    6.66123e+03   -2.81619e+04   -3.12984e+04
    Temperature Pressure (bar)   Constr. rmsd
    3.01699e+02    5.92048e+02    6.41636e-07

           Step           Time
         100000      100.00000

Writing checkpoint, step 100000 at Tue Nov  9 11:00:36 2021


   Energies (kJ/mol)
           Bond            U-B    Proper Dih.  Improper Dih.      CMAP Dih.
    2.93486e+01    4.23564e+01    5.32456e+01    6.02891e+00   -8.35103e+00
          LJ-14     Coulomb-14        LJ (SR)   Coulomb (SR)   Coul. recip.
    6.83962e+00    1.15347e+03    5.04903e+03   -4.13689e+04    1.08190e+02
 Position Rest.      Potential    Kinetic En.   Total Energy  Conserved En.
    1.80942e+01   -3.49106e+04    6.35064e+03   -2.85600e+04   -3.12989e+04
    Temperature Pressure (bar)   Constr. rmsd
    2.87632e+02   -4.71639e+02    7.26561e-07


	<======  ###############  ==>
	<====  A V E R A G E S  ====>
	<==  ###############  ======>

	Statistics over 100001 steps using 1001 frames

   Energies (kJ/mol)
           Bond            U-B    Proper Dih.  Improper Dih.      CMAP Dih.
    2.02228e+01    6.34643e+01    4.77736e+01    4.78022e+00   -6.36965e+00
          LJ-14     Coulomb-14        LJ (SR)   Coulomb (SR)   Coul. recip.
    6.80592e+00    1.13611e+03    5.38803e+03   -4.17881e+04    1.23632e+02
 Position Rest.      Potential    Kinetic En.   Total Energy  Conserved En.
    1.62773e+01   -3.49873e+04    6.62527e+03   -2.83621e+04   -3.12744e+04
    Temperature Pressure (bar)   Constr. rmsd
    3.00070e+02   -3.13888e+01    0.00000e+00

   Total Virial (kJ/mol)
    2.22525e+03   -1.85181e+01    5.10143e+00
   -1.85418e+01    2.23558e+03   -5.18013e+00
    4.96218e+00   -5.20603e+00    2.24100e+03

   Pressure (bar)
   -2.12288e+01    2.18193e+01   -6.00567e+00
    2.18484e+01   -2.85232e+01    7.68545e+00
   -5.83439e+00    7.71730e+00   -4.44145e+01


	M E G A - F L O P S   A C C O U N T I N G

 NB=Group-cutoff nonbonded kernels    NxN=N-by-N cluster Verlet kernels
 RF=Reaction-Field  VdW=Van der Waals  QSTab=quadratic-spline table
 W3=SPC/TIP3p  W4=TIP4p (single or pairs)
 V&F=Potential and force  V=Potential only  F=Force only

 Computing:                               M-Number         M-Flops  % Flops
-----------------------------------------------------------------------------
 Pair Search distance check            1474.304394       13268.740     0.1
 NxN Ewald Elec. + LJ [F]            119094.351552     9289359.421    55.4
 NxN Ewald Elec. + LJ [V&F]            1204.169360      155337.847     0.9
 NxN Ewald Elec. [F]                 112321.832832     6851631.803    40.8
 NxN Ewald Elec. [V&F]                 1135.704336       95399.164     0.6
 1,4 nonbonded interactions               7.400074         666.007     0.0
 Calc Weights                           794.707947       28609.486     0.2
 Spread Q Bspline                     16953.769536       33907.539     0.2
 Gather F Bspline                     16953.769536      101722.617     0.6
 3D-FFT                               20745.407452      165963.260     1.0
 Solve PME                               40.000400        2560.026     0.0
 Shift-X                                  2.651649          15.910     0.0
 Bonds                                    1.500015          88.501     0.0
 Propers                                  6.000060        1374.014     0.0
 Impropers                                0.500005         104.001     0.0
 Pos. Restr.                              1.600016          80.001     0.0
 Virial                                   2.696694          48.540     0.0
 Stop-CM                                  2.654298          26.543     0.0
 Calc-Ekin                               52.985298        1430.603     0.0
 Lincs                                    1.700051         102.003     0.0
 Lincs-Mat                               14.400432          57.602     0.0
 Constraint-V                           265.005300        2120.042     0.0
 Constraint-Vir                           2.635633          63.255     0.0
 Settle                                  87.202616       28166.445     0.2
 CMAP                                     0.100001         170.002     0.0
 Urey-Bradley                             5.700057        1043.110     0.0
-----------------------------------------------------------------------------
 Total                                                16773316.482   100.0
-----------------------------------------------------------------------------


     R E A L   C Y C L E   A N D   T I M E   A C C O U N T I N G

On 1 MPI rank, each using 8 OpenMP threads

 Computing:          Num   Num      Call    Wall time         Giga-Cycles
                     Ranks Threads  Count      (s)         total sum    %
-----------------------------------------------------------------------------
 Neighbor search        1    8       1001       0.689         16.535   1.4
 Force                  1    8     100001      36.610        878.643  76.9
 PME mesh               1    8     100001       7.360        176.637  15.5
 NB X/F buffer ops.     1    8     199001       1.261         30.275   2.7
 Write traj.            1    8          1       0.011          0.255   0.0
 Update                 1    8     100001       0.519         12.447   1.1
 Constraints            1    8     100003       0.883         21.189   1.9
 Rest                                           0.267          6.406   0.6
-----------------------------------------------------------------------------
 Total                                         47.599       1142.386 100.0
-----------------------------------------------------------------------------
 Breakdown of PME mesh computation
-----------------------------------------------------------------------------
 PME spread             1    8     100001       3.269         78.460   6.9
 PME gather             1    8     100001       2.252         54.047   4.7
 PME 3D-FFT             1    8     200002       1.509         36.228   3.2
 PME solve Elec         1    8     100001       0.199          4.772   0.4
-----------------------------------------------------------------------------

               Core t (s)   Wall t (s)        (%)
       Time:      380.790       47.599      800.0
                 (ns/day)    (hour/ns)
Performance:      181.519        0.132
Finished mdrun on rank 0 Tue Nov  9 11:00:36 2021

