      :-) GROMACS - gmx mdrun, 2020.5-dev-20210106-368fd87d82-unknown (-:

                            GROMACS is written by:
     Emile Apol      Rossen Apostolov      Paul Bauer     Herman J.C. Berendsen
    Par Bjelkmar      Christian Blau   Viacheslav Bolnykh     Kevin Boyd    
 Aldert van Buuren   Rudi van Drunen     Anton Feenstra       Alan Gray     
  Gerrit Groenhof     Anca Hamuraru    Vincent Hindriksen  M. Eric Irrgang  
  Aleksei Iupinov   Christoph Junghans     Joe Jordan     Dimitrios Karkoulis
    Peter Kasson        Jiri Kraus      Carsten Kutzner      Per Larsson    
  Justin A. Lemkul    Viveca Lindahl    Magnus Lundborg     Erik Marklund   
    Pascal Merz     Pieter Meulenhoff    Teemu Murtola       Szilard Pall   
    Sander Pronk      Roland Schulz      Michael Shirts    Alexey Shvetsov  
   Alfons Sijbers     Peter Tieleman      Jon Vincent      Teemu Virolainen 
 Christian Wennberg    Maarten Wolf      Artem Zhmurov   
                           and the project leaders:
        Mark Abraham, Berk Hess, Erik Lindahl, and David van der Spoel

Copyright (c) 1991-2000, University of Groningen, The Netherlands.
Copyright (c) 2001-2019, The GROMACS development team at
Uppsala University, Stockholm University and
the Royal Institute of Technology, Sweden.
check out http://www.gromacs.org for more information.

GROMACS is free software; you can redistribute it and/or modify it
under the terms of the GNU Lesser General Public License
as published by the Free Software Foundation; either version 2.1
of the License, or (at your option) any later version.

GROMACS:      gmx mdrun, version 2020.5-dev-20210106-368fd87d82-unknown
Executable:   /home/zhmurov/git/gromacs/build/2020.5/bin/gmx
Data prefix:  /home/zhmurov/git/gromacs (source tree)
Working dir:  /home/zhmurov/git/tutorials/alanine-tripeptide-replica-exchange-molecular-dynamics/prep
Process ID:   298124
Command line:
  gmx mdrun -v -deffnm em

GROMACS version:    2020.5-dev-20210106-368fd87d82-unknown
GIT SHA1 hash:      368fd87d82ef14133cc7d844cff7a8680ce2901f
Branched from:      unknown
Precision:          single
Memory model:       64 bit
MPI library:        thread_mpi
OpenMP support:     enabled (GMX_OPENMP_MAX_THREADS = 64)
GPU support:        CUDA
SIMD instructions:  AVX2_256
FFT library:        fftw-3.3.8-sse2-avx
RDTSCP usage:       enabled
TNG support:        enabled
Hwloc support:      hwloc-2.1.0
Tracing support:    disabled
C compiler:         /opt/intel/inteloneapi/mpi/2021.1-beta06/bin/mpicc GNU 9.3.0
C compiler flags:   -mavx2 -mfma -Wall -Wno-unused -Wunused-value -Wunused-parameter -Wextra -Wno-missing-field-initializers -Wno-sign-compare -Wpointer-arith -Wundef -Werror=stringop-truncation -fexcess-precision=fast -funroll-all-loops -Wno-array-bounds 
C++ compiler:       /opt/intel/inteloneapi/mpi/2021.1-beta06/bin/mpicxx GNU 9.3.0
C++ compiler flags: -mavx2 -mfma -Wall -Wextra -Wno-missing-field-initializers -Wpointer-arith -Wmissing-declarations -Wundef -Wstringop-truncation -fexcess-precision=fast -funroll-all-loops -Wno-array-bounds -fopenmp -O3 -DNDEBUG
CUDA compiler:      /usr/local/cuda-11.1/bin/nvcc nvcc: NVIDIA (R) Cuda compiler driver;Copyright (c) 2005-2020 NVIDIA Corporation;Built on Mon_Oct_12_20:09:46_PDT_2020;Cuda compilation tools, release 11.1, V11.1.105;Build cuda_11.1.TC455_06.29190527_0
CUDA compiler flags:-gencode;arch=compute_35,code=sm_35;-gencode;arch=compute_37,code=sm_37;-gencode;arch=compute_50,code=sm_50;-gencode;arch=compute_52,code=sm_52;-gencode;arch=compute_60,code=sm_60;-gencode;arch=compute_61,code=sm_61;-gencode;arch=compute_70,code=sm_70;-Wno-deprecated-gpu-targets;-gencode;arch=compute_35,code=compute_35;-gencode;arch=compute_50,code=compute_50;-gencode;arch=compute_52,code=compute_52;-gencode;arch=compute_60,code=compute_60;-gencode;arch=compute_61,code=compute_61;-gencode;arch=compute_70,code=compute_70;-gencode;arch=compute_75,code=compute_75;-gencode;arch=compute_80,code=compute_80;-use_fast_math;-D_FORCE_INLINES;-mavx2 -mfma -Wall -Wextra -Wno-missing-field-initializers -Wpointer-arith -Wmissing-declarations -Wundef -Wstringop-truncation -fexcess-precision=fast -funroll-all-loops -Wno-array-bounds -fopenmp -O3 -DNDEBUG
CUDA driver:        11.10
CUDA runtime:       11.10


Running on 1 node with total 12 cores, 24 logical cores, 1 compatible GPU
Hardware detected:
  CPU info:
    Vendor: AMD
    Brand:  AMD Ryzen 9 3900X 12-Core Processor            
    Family: 23   Model: 113   Stepping: 0
    Features: aes amd apic avx avx2 clfsh cmov cx8 cx16 f16c fma htt lahf misalignsse mmx msr nonstop_tsc pclmuldq pdpe1gb popcnt pse rdrnd rdtscp sha sse2 sse3 sse4a sse4.1 sse4.2 ssse3
  Hardware topology: Full, with devices
    Sockets, cores, and logical processors:
      Socket  0: [   0  12] [   1  13] [   2  14] [   3  15] [   4  16] [   5  17] [   6  18] [   7  19] [   8  20] [   9  21] [  10  22] [  11  23]
    Numa nodes:
      Node  0 (33642057728 bytes mem):   0  12   1  13   2  14   3  15   4  16   5  17   6  18   7  19   8  20   9  21  10  22  11  23
      Latency:
               0
         0  1.00
    Caches:
      L1: 32768 bytes, linesize 64 bytes, assoc. 8, shared 2 ways
      L2: 524288 bytes, linesize 64 bytes, assoc. 8, shared 2 ways
      L3: 16777216 bytes, linesize 64 bytes, assoc. 16, shared 6 ways
    PCI devices:
      0000:01:00.0  Id: 144d:a808  Class: 0x0108  Numa: 0
      0000:04:00.0  Id: 10ec:8168  Class: 0x0200  Numa: 0
      0000:06:00.0  Id: 1022:7901  Class: 0x0106  Numa: 0
      0000:07:00.0  Id: 1022:7901  Class: 0x0106  Numa: 0
      0000:08:00.0  Id: 10de:1e81  Class: 0x0300  Numa: 0
      0000:0b:00.0  Id: 1022:7901  Class: 0x0106  Numa: 0
      0000:0c:00.0  Id: 1022:7901  Class: 0x0106  Numa: 0
  GPU info:
    Number of GPUs detected: 1
    #0: NVIDIA GeForce RTX 2080 SUPER, compute cap.: 7.5, ECC:  no, stat: compatible


++++ PLEASE READ AND CITE THE FOLLOWING REFERENCE ++++
M. J. Abraham, T. Murtola, R. Schulz, S. Páll, J. C. Smith, B. Hess, E.
Lindahl
GROMACS: High performance molecular simulations through multi-level
parallelism from laptops to supercomputers
SoftwareX 1 (2015) pp. 19-25
-------- -------- --- Thank You --- -------- --------


++++ PLEASE READ AND CITE THE FOLLOWING REFERENCE ++++
S. Páll, M. J. Abraham, C. Kutzner, B. Hess, E. Lindahl
Tackling Exascale Software Challenges in Molecular Dynamics Simulations with
GROMACS
In S. Markidis & E. Laure (Eds.), Solving Software Challenges for Exascale 8759 (2015) pp. 3-27
-------- -------- --- Thank You --- -------- --------


++++ PLEASE READ AND CITE THE FOLLOWING REFERENCE ++++
S. Pronk, S. Páll, R. Schulz, P. Larsson, P. Bjelkmar, R. Apostolov, M. R.
Shirts, J. C. Smith, P. M. Kasson, D. van der Spoel, B. Hess, and E. Lindahl
GROMACS 4.5: a high-throughput and highly parallel open source molecular
simulation toolkit
Bioinformatics 29 (2013) pp. 845-54
-------- -------- --- Thank You --- -------- --------


++++ PLEASE READ AND CITE THE FOLLOWING REFERENCE ++++
B. Hess and C. Kutzner and D. van der Spoel and E. Lindahl
GROMACS 4: Algorithms for highly efficient, load-balanced, and scalable
molecular simulation
J. Chem. Theory Comput. 4 (2008) pp. 435-447
-------- -------- --- Thank You --- -------- --------


++++ PLEASE READ AND CITE THE FOLLOWING REFERENCE ++++
D. van der Spoel, E. Lindahl, B. Hess, G. Groenhof, A. E. Mark and H. J. C.
Berendsen
GROMACS: Fast, Flexible and Free
J. Comp. Chem. 26 (2005) pp. 1701-1719
-------- -------- --- Thank You --- -------- --------


++++ PLEASE READ AND CITE THE FOLLOWING REFERENCE ++++
E. Lindahl and B. Hess and D. van der Spoel
GROMACS 3.0: A package for molecular simulation and trajectory analysis
J. Mol. Mod. 7 (2001) pp. 306-317
-------- -------- --- Thank You --- -------- --------


++++ PLEASE READ AND CITE THE FOLLOWING REFERENCE ++++
H. J. C. Berendsen, D. van der Spoel and R. van Drunen
GROMACS: A message-passing parallel molecular dynamics implementation
Comp. Phys. Comm. 91 (1995) pp. 43-56
-------- -------- --- Thank You --- -------- --------


++++ PLEASE CITE THE DOI FOR THIS VERSION OF GROMACS ++++
https://doi.org/10.5281/zenodo.4420785
-------- -------- --- Thank You --- -------- --------

Input Parameters:
   integrator                     = steep
   tinit                          = 0
   dt                             = 0.001
   nsteps                         = -1
   init-step                      = 0
   simulation-part                = 1
   comm-mode                      = Linear
   nstcomm                        = 100
   bd-fric                        = 0
   ld-seed                        = 2147122415
   emtol                          = 1000
   emstep                         = 0.01
   niter                          = 20
   fcstep                         = 0
   nstcgsteep                     = 1000
   nbfgscorr                      = 10
   rtpi                           = 0.05
   nstxout                        = 0
   nstvout                        = 0
   nstfout                        = 0
   nstlog                         = 1000
   nstcalcenergy                  = 100
   nstenergy                      = 500
   nstxout-compressed             = 0
   compressed-x-precision         = 1000
   cutoff-scheme                  = Verlet
   nstlist                        = 10
   pbc                            = xyz
   periodic-molecules             = false
   verlet-buffer-tolerance        = 0.005
   rlist                          = 1.26
   coulombtype                    = PME
   coulomb-modifier               = Potential-shift
   rcoulomb-switch                = 0
   rcoulomb                       = 1.2
   epsilon-r                      = 1
   epsilon-rf                     = inf
   vdw-type                       = Cut-off
   vdw-modifier                   = Force-switch
   rvdw-switch                    = 1
   rvdw                           = 1.2
   DispCorr                       = EnerPres
   table-extension                = 1
   fourierspacing                 = 0.15
   fourier-nx                     = 20
   fourier-ny                     = 20
   fourier-nz                     = 20
   pme-order                      = 4
   ewald-rtol                     = 1e-05
   ewald-rtol-lj                  = 0.001
   lj-pme-comb-rule               = Geometric
   ewald-geometry                 = 0
   epsilon-surface                = 0
   tcoupl                         = No
   nsttcouple                     = -1
   nh-chain-length                = 0
   print-nose-hoover-chain-variables = false
   pcoupl                         = No
   pcoupltype                     = Isotropic
   nstpcouple                     = -1
   tau-p                          = 1
   compressibility (3x3):
      compressibility[    0]={ 0.00000e+00,  0.00000e+00,  0.00000e+00}
      compressibility[    1]={ 0.00000e+00,  0.00000e+00,  0.00000e+00}
      compressibility[    2]={ 0.00000e+00,  0.00000e+00,  0.00000e+00}
   ref-p (3x3):
      ref-p[    0]={ 0.00000e+00,  0.00000e+00,  0.00000e+00}
      ref-p[    1]={ 0.00000e+00,  0.00000e+00,  0.00000e+00}
      ref-p[    2]={ 0.00000e+00,  0.00000e+00,  0.00000e+00}
   refcoord-scaling               = No
   posres-com (3):
      posres-com[0]= 0.00000e+00
      posres-com[1]= 0.00000e+00
      posres-com[2]= 0.00000e+00
   posres-comB (3):
      posres-comB[0]= 0.00000e+00
      posres-comB[1]= 0.00000e+00
      posres-comB[2]= 0.00000e+00
   QMMM                           = false
   QMconstraints                  = 0
   QMMMscheme                     = 0
   MMChargeScaleFactor            = 1
qm-opts:
   ngQM                           = 0
   constraint-algorithm           = Lincs
   continuation                   = false
   Shake-SOR                      = false
   shake-tol                      = 0.0001
   lincs-order                    = 4
   lincs-iter                     = 1
   lincs-warnangle                = 30
   nwall                          = 0
   wall-type                      = 9-3
   wall-r-linpot                  = -1
   wall-atomtype[0]               = -1
   wall-atomtype[1]               = -1
   wall-density[0]                = 0
   wall-density[1]                = 0
   wall-ewald-zfac                = 3
   pull                           = false
   awh                            = false
   rotation                       = false
   interactiveMD                  = false
   disre                          = No
   disre-weighting                = Conservative
   disre-mixed                    = false
   dr-fc                          = 1000
   dr-tau                         = 0
   nstdisreout                    = 100
   orire-fc                       = 0
   orire-tau                      = 0
   nstorireout                    = 100
   free-energy                    = no
   cos-acceleration               = 0
   deform (3x3):
      deform[    0]={ 0.00000e+00,  0.00000e+00,  0.00000e+00}
      deform[    1]={ 0.00000e+00,  0.00000e+00,  0.00000e+00}
      deform[    2]={ 0.00000e+00,  0.00000e+00,  0.00000e+00}
   simulated-tempering            = false
   swapcoords                     = no
   userint1                       = 0
   userint2                       = 0
   userint3                       = 0
   userint4                       = 0
   userreal1                      = 0
   userreal2                      = 0
   userreal3                      = 0
   userreal4                      = 0
   applied-forces:
     electric-field:
       x:
         E0                       = 0
         omega                    = 0
         t0                       = 0
         sigma                    = 0
       y:
         E0                       = 0
         omega                    = 0
         t0                       = 0
         sigma                    = 0
       z:
         E0                       = 0
         omega                    = 0
         t0                       = 0
         sigma                    = 0
     density-guided-simulation:
       active                     = false
       group                      = protein
       similarity-measure         = inner-product
       atom-spreading-weight      = unity
       force-constant             = 1e+09
       gaussian-transform-spreading-width = 0.2
       gaussian-transform-spreading-range-in-multiples-of-width = 4
       reference-density-filename = reference.mrc
       nst                        = 1
       normalize-densities        = true
       adaptive-force-scaling     = false
       adaptive-force-scaling-time-constant = 4
grpopts:
   nrdf:        5311
   ref-t:           0
   tau-t:           0
annealing:          No
annealing-npoints:           0
   acc:	           0           0           0
   nfreeze:           N           N           N
   energygrp-flags[  0]: 0

1 GPU selected for this run.
Mapping of GPU IDs to the 1 GPU task in the 1 rank on this node:
  PP:0
PP tasks will do (non-perturbed) short-ranged interactions on the GPU
PP task will update and constrain coordinates on the CPU
Using 1 MPI thread

Non-default thread affinity set, disabling internal thread affinity

Using 24 OpenMP threads 

System total charge: 0.000
Will do PME sum in reciprocal space for electrostatic interactions.

++++ PLEASE READ AND CITE THE FOLLOWING REFERENCE ++++
U. Essmann, L. Perera, M. L. Berkowitz, T. Darden, H. Lee and L. G. Pedersen 
A smooth particle mesh Ewald method
J. Chem. Phys. 103 (1995) pp. 8577-8592
-------- -------- --- Thank You --- -------- --------

Using a Gaussian width (1/beta) of 0.384195 nm for Ewald
Potential shift: LJ r^-12: -2.648e-01 r^-6: -5.349e-01, Ewald -8.333e-06
Initialized non-bonded Ewald tables, spacing: 1.02e-03 size: 1176

Generated table with 1130 data points for 1-4 COUL.
Tabscale = 500 points/nm
Generated table with 1130 data points for 1-4 LJ6.
Tabscale = 500 points/nm
Generated table with 1130 data points for 1-4 LJ12.
Tabscale = 500 points/nm

Using GPU 8x8 nonbonded short-range kernels

Using a 8x8 pair-list setup:
  updated every 10 steps, buffer 0.060 nm, rlist 1.260 nm

Long Range LJ corr.: <C6> 2.8138e-04

Removing pbc first time

Initializing LINear Constraint Solver

++++ PLEASE READ AND CITE THE FOLLOWING REFERENCE ++++
B. Hess and H. Bekker and H. J. C. Berendsen and J. G. E. M. Fraaije
LINCS: A Linear Constraint Solver for molecular simulations
J. Comp. Chem. 18 (1997) pp. 1463-1472
-------- -------- --- Thank You --- -------- --------

The number of constraints is 17

++++ PLEASE READ AND CITE THE FOLLOWING REFERENCE ++++
S. Miyamoto and P. A. Kollman
SETTLE: An Analytical Version of the SHAKE and RATTLE Algorithms for Rigid
Water Models
J. Comp. Chem. 13 (1992) pp. 952-962
-------- -------- --- Thank You --- -------- --------


Note that activating steepest-descent energy minimization via the integrator .mdp option and the command gmx mdrun may be available in a different form in a future version of GROMACS, e.g. gmx minimize and an .mdp option.
Initiating Steepest Descents
Started Steepest Descents on rank 0 Wed Jan 13 04:09:31 2021


Steepest Descents:
   Tolerance (Fmax)   =  1.00000e+03
   Number of steps    =           -1
           Step           Time
              0        0.00000

   Energies (kJ/mol)
           Bond            U-B    Proper Dih.  Improper Dih.      CMAP Dih.
    8.64742e+01    3.07216e+01    4.39328e+01    2.04127e-01    1.84357e-01
          LJ-14     Coulomb-14        LJ (SR)  Disper. corr.   Coulomb (SR)
    1.56203e+01    1.13303e+03    3.45488e+04   -2.22255e+02   -3.75160e+04
   Coul. recip.      Potential Pres. DC (bar) Pressure (bar)   Constr. rmsd
    8.43090e+02   -1.03619e+03    0.00000e+00    8.42999e+04    6.70594e-05

           Step           Time
              1        1.00000

   Energies (kJ/mol)
           Bond            U-B    Proper Dih.  Improper Dih.      CMAP Dih.
    8.14785e+01    2.99092e+01    4.38838e+01    1.93120e-01    1.88308e-01
          LJ-14     Coulomb-14        LJ (SR)  Disper. corr.   Coulomb (SR)
    1.56253e+01    1.13297e+03    2.23659e+04   -2.22255e+02   -3.76183e+04
   Coul. recip.      Potential Pres. DC (bar) Pressure (bar)   Constr. rmsd
    8.40774e+02   -1.33296e+04    0.00000e+00    4.86328e+04    8.32961e-07

           Step           Time
              2        2.00000

   Energies (kJ/mol)
           Bond            U-B    Proper Dih.  Improper Dih.      CMAP Dih.
    6.64104e+01    2.76982e+01    4.37251e+01    1.75129e-01    2.02373e-01
          LJ-14     Coulomb-14        LJ (SR)  Disper. corr.   Coulomb (SR)
    1.56364e+01    1.13282e+03    1.49486e+04   -2.22255e+02   -3.77941e+04
   Coul. recip.      Potential Pres. DC (bar) Pressure (bar)   Constr. rmsd
    8.33514e+02   -2.09476e+04    0.00000e+00    2.77791e+04    7.32291e-07

           Step           Time
              3        3.00000

   Energies (kJ/mol)
           Bond            U-B    Proper Dih.  Improper Dih.      CMAP Dih.
    4.12680e+01    2.65979e+01    4.33810e+01    2.93072e-01    2.43440e-01
          LJ-14     Coulomb-14        LJ (SR)  Disper. corr.   Coulomb (SR)
    1.55722e+01    1.13279e+03    1.11333e+04   -2.22255e+02   -3.80899e+04
   Coul. recip.      Potential Pres. DC (bar) Pressure (bar)   Constr. rmsd
    8.12991e+02   -2.51057e+04    0.00000e+00    1.71511e+04    1.36234e-06

           Step           Time
              4        4.00000

   Energies (kJ/mol)
           Bond            U-B    Proper Dih.  Improper Dih.      CMAP Dih.
    1.73888e+01    4.06107e+01    4.33364e+01    1.13471e+00    3.04170e-01
          LJ-14     Coulomb-14        LJ (SR)  Disper. corr.   Coulomb (SR)
    1.42915e+01    1.13616e+03    8.67092e+03   -2.22255e+02   -3.87698e+04
   Coul. recip.      Potential Pres. DC (bar) Pressure (bar)   Constr. rmsd
    7.45453e+02   -2.83224e+04    0.00000e+00    9.62131e+03    2.16288e-05

           Step           Time
              5        5.00000

   Energies (kJ/mol)
           Bond            U-B    Proper Dih.  Improper Dih.      CMAP Dih.
    2.89580e+02    7.48508e+01    4.42950e+01    2.00757e+00    1.43868e-01
          LJ-14     Coulomb-14        LJ (SR)  Disper. corr.   Coulomb (SR)
    1.54588e+01    1.14288e+03    7.41599e+03   -2.22255e+02   -3.97811e+04
   Coul. recip.      Potential Pres. DC (bar) Pressure (bar)   Constr. rmsd
    6.03458e+02   -3.04147e+04    0.00000e+00    4.81866e+03    7.56706e-06

           Step           Time
              6        6.00000

   Energies (kJ/mol)
           Bond            U-B    Proper Dih.  Improper Dih.      CMAP Dih.
    2.00225e+02    5.91114e+01    4.36930e+01    3.86049e-01    2.76862e-01
          LJ-14     Coulomb-14        LJ (SR)  Disper. corr.   Coulomb (SR)
    1.23917e+01    1.15617e+03    7.30786e+03   -2.22255e+02   -3.99489e+04
   Coul. recip.      Potential Pres. DC (bar) Pressure (bar)   Constr. rmsd
    5.89016e+02   -3.08020e+04    0.00000e+00    4.53751e+03    2.14776e-06

           Step           Time
              7        7.00000

   Energies (kJ/mol)
           Bond            U-B    Proper Dih.  Improper Dih.      CMAP Dih.
    4.39881e+02    6.99299e+01    4.32982e+01    3.99805e-01    1.79413e-01
          LJ-14     Coulomb-14        LJ (SR)  Disper. corr.   Coulomb (SR)
    1.56148e+01    1.14550e+03    7.16408e+03   -2.22255e+02   -4.00968e+04
   Coul. recip.      Potential Pres. DC (bar) Pressure (bar)   Constr. rmsd
    5.63683e+02   -3.08765e+04    0.00000e+00    4.14935e+03    7.11594e-07

           Step           Time
              8        8.00000

   Energies (kJ/mol)
           Bond            U-B    Proper Dih.  Improper Dih.      CMAP Dih.
    3.37693e+02    8.29381e+01    4.38311e+01    5.08150e-01    1.81231e-01
          LJ-14     Coulomb-14        LJ (SR)  Disper. corr.   Coulomb (SR)
    1.22224e+01    1.15698e+03    7.11044e+03   -2.22255e+02   -4.02364e+04
   Coul. recip.      Potential Pres. DC (bar) Pressure (bar)   Constr. rmsd
    5.54249e+02   -3.11596e+04    0.00000e+00    3.68485e+03    6.94352e-07

           Step           Time
              9        9.00000

           Step           Time
             10       10.00000

   Energies (kJ/mol)
           Bond            U-B    Proper Dih.  Improper Dih.      CMAP Dih.
    2.67484e+01    2.79352e+01    4.32559e+01    4.44208e-01    1.53318e-01
          LJ-14     Coulomb-14        LJ (SR)  Disper. corr.   Coulomb (SR)
    1.40076e+01    1.15199e+03    7.04459e+03   -2.22255e+02   -4.02983e+04
   Coul. recip.      Potential Pres. DC (bar) Pressure (bar)   Constr. rmsd
    5.42062e+02   -3.16694e+04    0.00000e+00    3.80381e+03    7.53252e-07

           Step           Time
             11       11.00000

   Energies (kJ/mol)
           Bond            U-B    Proper Dih.  Improper Dih.      CMAP Dih.
    4.24702e+02    9.92471e+01    4.39265e+01    4.49168e-01    9.64622e-02
          LJ-14     Coulomb-14        LJ (SR)  Disper. corr.   Coulomb (SR)
    1.16290e+01    1.15971e+03    6.85956e+03   -2.22255e+02   -4.06420e+04
   Coul. recip.      Potential Pres. DC (bar) Pressure (bar)   Constr. rmsd
    5.04715e+02   -3.17602e+04    0.00000e+00    2.60937e+03    6.72021e-07

           Step           Time
             12       12.00000

   Energies (kJ/mol)
           Bond            U-B    Proper Dih.  Improper Dih.      CMAP Dih.
    1.06847e+02    3.36384e+01    4.31946e+01    4.13915e-01    6.91350e-02
          LJ-14     Coulomb-14        LJ (SR)  Disper. corr.   Coulomb (SR)
    1.46320e+01    1.15332e+03    6.79570e+03   -2.22255e+02   -4.06974e+04
   Coul. recip.      Potential Pres. DC (bar) Pressure (bar)   Constr. rmsd
    4.92235e+02   -3.22796e+04    0.00000e+00    2.84805e+03    8.45042e-07

           Step           Time
             13       13.00000

           Step           Time
             14       14.00000

   Energies (kJ/mol)
           Bond            U-B    Proper Dih.  Improper Dih.      CMAP Dih.
    6.66930e+01    3.65714e+01    4.34787e+01    4.70093e-01    6.41904e-02
          LJ-14     Coulomb-14        LJ (SR)  Disper. corr.   Coulomb (SR)
    1.24448e+01    1.15863e+03    6.75623e+03   -2.22255e+02   -4.07931e+04
   Coul. recip.      Potential Pres. DC (bar) Pressure (bar)   Constr. rmsd
    4.84870e+02   -3.24559e+04    0.00000e+00    2.50389e+03    8.01116e-07

           Step           Time
             15       15.00000

   Energies (kJ/mol)
           Bond            U-B    Proper Dih.  Improper Dih.      CMAP Dih.
    1.95152e+02    4.17536e+01    4.31877e+01    3.85552e-01    3.62649e-02
          LJ-14     Coulomb-14        LJ (SR)  Disper. corr.   Coulomb (SR)
    1.51258e+01    1.15362e+03    6.67846e+03   -2.22255e+02   -4.08993e+04
   Coul. recip.      Potential Pres. DC (bar) Pressure (bar)   Constr. rmsd
    4.68383e+02   -3.25255e+04    0.00000e+00    2.37794e+03    9.23617e-07

           Step           Time
             16       16.00000

   Energies (kJ/mol)
           Bond            U-B    Proper Dih.  Improper Dih.      CMAP Dih.
    1.42485e+02    4.90542e+01    4.35803e+01    4.84479e-01    3.57664e-02
          LJ-14     Coulomb-14        LJ (SR)  Disper. corr.   Coulomb (SR)
    1.18590e+01    1.16112e+03    6.64753e+03   -2.22255e+02   -4.09937e+04
   Coul. recip.      Potential Pres. DC (bar) Pressure (bar)   Constr. rmsd
    4.63215e+02   -3.26965e+04    0.00000e+00    1.97693e+03    9.63376e-07

           Step           Time
             17       17.00000

           Step           Time
             18       18.00000

   Energies (kJ/mol)
           Bond            U-B    Proper Dih.  Improper Dih.      CMAP Dih.
    1.68506e+01    2.43433e+01    4.32768e+01    4.23205e-01    1.95417e-02
          LJ-14     Coulomb-14        LJ (SR)  Disper. corr.   Coulomb (SR)
    1.36620e+01    1.15748e+03    6.60997e+03   -2.22255e+02   -4.10377e+04
   Coul. recip.      Potential Pres. DC (bar) Pressure (bar)   Constr. rmsd
    4.55150e+02   -3.29387e+04    0.00000e+00    2.06230e+03    5.80594e-07

           Step           Time
             19       19.00000

   Energies (kJ/mol)
           Bond            U-B    Proper Dih.  Improper Dih.      CMAP Dih.
    2.08169e+02    6.02726e+01    4.36603e+01    4.88893e-01   -3.39651e-03
          LJ-14     Coulomb-14        LJ (SR)  Disper. corr.   Coulomb (SR)
    1.13533e+01    1.16371e+03    6.50454e+03   -2.22255e+02   -4.12634e+04
   Coul. recip.      Potential Pres. DC (bar) Pressure (bar)   Constr. rmsd
    4.34325e+02   -3.30591e+04    0.00000e+00    1.32301e+03    7.81574e-07

           Step           Time
             20       20.00000

   Energies (kJ/mol)
           Bond            U-B    Proper Dih.  Improper Dih.      CMAP Dih.
    5.97847e+01    2.74894e+01    4.32715e+01    4.05165e-01   -2.77315e-02
          LJ-14     Coulomb-14        LJ (SR)  Disper. corr.   Coulomb (SR)
    1.40645e+01    1.15829e+03    6.46484e+03   -2.22255e+02   -4.13054e+04
   Coul. recip.      Potential Pres. DC (bar) Pressure (bar)   Constr. rmsd
    4.25432e+02   -3.33341e+04    0.00000e+00    1.48761e+03    6.65616e-07

           Step           Time
             21       21.00000

           Step           Time
             22       22.00000

   Energies (kJ/mol)
           Bond            U-B    Proper Dih.  Improper Dih.      CMAP Dih.
    3.41189e+01    2.89387e+01    4.34475e+01    4.59913e-01   -2.96785e-02
          LJ-14     Coulomb-14        LJ (SR)  Disper. corr.   Coulomb (SR)
    1.22511e+01    1.16233e+03    6.43845e+03   -2.22255e+02   -4.13754e+04
   Coul. recip.      Potential Pres. DC (bar) Pressure (bar)   Constr. rmsd
    4.20942e+02   -3.34567e+04    0.00000e+00    1.23318e+03    6.12474e-07

           Step           Time
             23       23.00000

   Energies (kJ/mol)
           Bond            U-B    Proper Dih.  Improper Dih.      CMAP Dih.
    1.09253e+02    3.19018e+01    4.32831e+01    3.86934e-01   -5.57345e-02
          LJ-14     Coulomb-14        LJ (SR)  Disper. corr.   Coulomb (SR)
    1.43820e+01    1.15844e+03    6.38515e+03   -2.22255e+02   -4.14590e+04
   Coul. recip.      Potential Pres. DC (bar) Pressure (bar)   Constr. rmsd
    4.09279e+02   -3.35293e+04    0.00000e+00    1.16451e+03    9.72122e-07

           Step           Time
             24       24.00000

   Energies (kJ/mol)
           Bond            U-B    Proper Dih.  Improper Dih.      CMAP Dih.
    7.44733e+01    3.56655e+01    4.35276e+01    4.74739e-01   -5.35688e-02
          LJ-14     Coulomb-14        LJ (SR)  Disper. corr.   Coulomb (SR)
    1.17504e+01    1.16406e+03    6.36311e+03   -2.22255e+02   -4.15300e+04
   Coul. recip.      Potential Pres. DC (bar) Pressure (bar)   Constr. rmsd
    4.06096e+02   -3.36531e+04    0.00000e+00    8.59867e+02    8.84670e-07

           Step           Time
             25       25.00000

           Step           Time
             26       26.00000

   Energies (kJ/mol)
           Bond            U-B    Proper Dih.  Improper Dih.      CMAP Dih.
    1.15241e+01    2.21277e+01    4.33543e+01    4.19685e-01   -6.89317e-02
          LJ-14     Coulomb-14        LJ (SR)  Disper. corr.   Coulomb (SR)
    1.32077e+01    1.16128e+03    6.33753e+03   -2.22255e+02   -4.15649e+04
   Coul. recip.      Potential Pres. DC (bar) Pressure (bar)   Constr. rmsd
    4.00360e+02   -3.37975e+04    0.00000e+00    9.18182e+02    6.43587e-07

           Step           Time
             27       27.00000

   Energies (kJ/mol)
           Bond            U-B    Proper Dih.  Improper Dih.      CMAP Dih.
    1.11788e+02    4.18868e+01    4.36060e+01    4.89849e-01   -8.69476e-02
          LJ-14     Coulomb-14        LJ (SR)  Disper. corr.   Coulomb (SR)
    1.13338e+01    1.16574e+03    6.26761e+03   -2.22255e+02   -4.17294e+04
   Coul. recip.      Potential Pres. DC (bar) Pressure (bar)   Constr. rmsd
    3.87106e+02   -3.39221e+04    0.00000e+00    4.09002e+02    4.24925e-07

           Step           Time
             28       28.00000

   Energies (kJ/mol)
           Bond            U-B    Proper Dih.  Improper Dih.      CMAP Dih.
    3.64418e+01    2.35826e+01    4.33758e+01    4.06609e-01   -1.08777e-01
          LJ-14     Coulomb-14        LJ (SR)  Disper. corr.   Coulomb (SR)
    1.34588e+01    1.16168e+03    6.23979e+03   -2.22255e+02   -4.17641e+04
   Coul. recip.      Potential Pres. DC (bar) Pressure (bar)   Constr. rmsd
    3.80624e+02   -3.40871e+04    0.00000e+00    5.23482e+02    7.42213e-07

           Step           Time
             29       29.00000

           Step           Time
             30       30.00000

   Energies (kJ/mol)
           Bond            U-B    Proper Dih.  Improper Dih.      CMAP Dih.
    1.84161e+01    2.47735e+01    4.34951e+01    4.54983e-01   -1.10057e-01
          LJ-14     Coulomb-14        LJ (SR)  Disper. corr.   Coulomb (SR)
    1.20578e+01    1.16460e+03    6.22057e+03   -2.22255e+02   -4.18187e+04
   Coul. recip.      Potential Pres. DC (bar) Pressure (bar)   Constr. rmsd
    3.77511e+02   -3.41792e+04    0.00000e+00    3.29208e+02    9.35421e-07

           Step           Time
             31       31.00000

   Energies (kJ/mol)
           Bond            U-B    Proper Dih.  Improper Dih.      CMAP Dih.
    6.48949e+01    2.58480e+01    4.34007e+01    3.93013e-01   -1.35005e-01
          LJ-14     Coulomb-14        LJ (SR)  Disper. corr.   Coulomb (SR)
    1.36539e+01    1.16177e+03    6.18038e+03   -2.22255e+02   -4.18898e+04
   Coul. recip.      Potential Pres. DC (bar) Pressure (bar)   Constr. rmsd
    3.68738e+02   -3.42531e+04    0.00000e+00    2.78409e+02    7.35424e-07

           Step           Time
             32       32.00000

   Energies (kJ/mol)
           Bond            U-B    Proper Dih.  Improper Dih.      CMAP Dih.
    4.01759e+01    2.84785e+01    4.35649e+01    4.68103e-01   -1.32593e-01
          LJ-14     Coulomb-14        LJ (SR)  Disper. corr.   Coulomb (SR)
    1.16438e+01    1.16583e+03    6.16361e+03   -2.22255e+02   -4.19461e+04
   Coul. recip.      Potential Pres. DC (bar) Pressure (bar)   Constr. rmsd
    3.66431e+02   -3.43483e+04    0.00000e+00    4.23303e+01    8.96171e-07

           Step           Time
             33       33.00000

   Energies (kJ/mol)
           Bond            U-B    Proper Dih.  Improper Dih.      CMAP Dih.
    1.20041e+02    3.09419e+01    4.34303e+01    3.78901e-01   -1.61772e-01
          LJ-14     Coulomb-14        LJ (SR)  Disper. corr.   Coulomb (SR)
    1.39849e+01    1.16153e+03    6.12672e+03   -2.22255e+02   -4.20055e+04
   Coul. recip.      Potential Pres. DC (bar) Pressure (bar)   Constr. rmsd
    3.57953e+02   -3.43729e+04    0.00000e+00    5.42550e+01    9.68353e-07

           Step           Time
             34       34.00000

   Energies (kJ/mol)
           Bond            U-B    Proper Dih.  Improper Dih.      CMAP Dih.
    8.96820e+01    3.70970e+01    4.36607e+01    4.93916e-01   -1.53126e-01
          LJ-14     Coulomb-14        LJ (SR)  Disper. corr.   Coulomb (SR)
    1.11109e+01    1.16717e+03    6.11300e+03   -2.22255e+02   -4.20644e+04
   Coul. recip.      Potential Pres. DC (bar) Pressure (bar)   Constr. rmsd
    3.56685e+02   -3.44679e+04    0.00000e+00   -2.45556e+02    8.72540e-07

           Step           Time
             35       35.00000

           Step           Time
             36       36.00000

   Energies (kJ/mol)
           Bond            U-B    Proper Dih.  Improper Dih.      CMAP Dih.
    1.05660e+01    2.02149e+01    4.34937e+01    4.19254e-01   -1.70686e-01
          LJ-14     Coulomb-14        LJ (SR)  Disper. corr.   Coulomb (SR)
    1.26901e+01    1.16423e+03    6.09434e+03   -2.22255e+02   -4.20888e+04
   Coul. recip.      Potential Pres. DC (bar) Pressure (bar)   Constr. rmsd
    3.52251e+02   -3.46130e+04    0.00000e+00   -1.38735e+02    6.12986e-07

           Step           Time
             37       37.00000

   Energies (kJ/mol)
           Bond            U-B    Proper Dih.  Improper Dih.      CMAP Dih.
    1.36523e+02    4.53429e+01    4.37648e+01    5.20313e-01   -1.85551e-01
          LJ-14     Coulomb-14        LJ (SR)  Disper. corr.   Coulomb (SR)
    1.06813e+01    1.16841e+03    6.04224e+03   -2.22255e+02   -4.22312e+04
   Coul. recip.      Potential Pres. DC (bar) Pressure (bar)   Constr. rmsd
    3.42800e+02   -3.46634e+04    0.00000e+00   -6.13041e+02    7.00047e-07

           Step           Time
             38       38.00000

   Energies (kJ/mol)
           Bond            U-B    Proper Dih.  Improper Dih.      CMAP Dih.
    3.72266e+01    2.17926e+01    4.35388e+01    4.04036e-01   -2.10450e-01
          LJ-14     Coulomb-14        LJ (SR)  Disper. corr.   Coulomb (SR)
    1.29593e+01    1.16422e+03    6.02125e+03   -2.22255e+02   -4.22549e+04
   Coul. recip.      Potential Pres. DC (bar) Pressure (bar)   Constr. rmsd
    3.37585e+02   -3.48384e+04    0.00000e+00   -4.39728e+02    8.50833e-07

           Step           Time
             39       39.00000

           Step           Time
             40       40.00000

   Energies (kJ/mol)
           Bond            U-B    Proper Dih.  Improper Dih.      CMAP Dih.
    2.36785e+01    2.44799e+01    4.36565e+01    4.67891e-01   -2.08921e-01
          LJ-14     Coulomb-14        LJ (SR)  Disper. corr.   Coulomb (SR)
    1.14560e+01    1.16709e+03    6.00761e+03   -2.22255e+02   -4.23022e+04
   Coul. recip.      Potential Pres. DC (bar) Pressure (bar)   Constr. rmsd
    3.35644e+02   -3.49106e+04    0.00000e+00   -6.28745e+02    6.99897e-07

           Step           Time
             41       41.00000

   Energies (kJ/mol)
           Bond            U-B    Proper Dih.  Improper Dih.      CMAP Dih.
    6.82588e+01    2.43376e+01    4.35753e+01    3.89943e-01   -2.34894e-01
          LJ-14     Coulomb-14        LJ (SR)  Disper. corr.   Coulomb (SR)
    1.31777e+01    1.16404e+03    5.97972e+03   -2.22255e+02   -4.23525e+04
   Coul. recip.      Potential Pres. DC (bar) Pressure (bar)   Constr. rmsd
    3.29279e+02   -3.49522e+04    0.00000e+00   -6.14067e+02    8.25147e-07

           Step           Time
             42       42.00000

   Energies (kJ/mol)
           Bond            U-B    Proper Dih.  Improper Dih.      CMAP Dih.
    5.18102e+01    2.95029e+01    4.37376e+01    4.86798e-01   -2.28617e-01
          LJ-14     Coulomb-14        LJ (SR)  Disper. corr.   Coulomb (SR)
    1.10308e+01    1.16804e+03    5.96815e+03   -2.22255e+02   -4.24021e+04
   Coul. recip.      Potential Pres. DC (bar) Pressure (bar)   Constr. rmsd
    3.28056e+02   -3.50238e+04    0.00000e+00   -8.54122e+02    7.04510e-07

           Step           Time
             43       43.00000

           Step           Time
             44       44.00000

   Energies (kJ/mol)
           Bond            U-B    Proper Dih.  Improper Dih.      CMAP Dih.
    6.80289e+00    1.88012e+01    4.36358e+01    4.24804e-01   -2.44173e-01
          LJ-14     Coulomb-14        LJ (SR)  Disper. corr.   Coulomb (SR)
    1.22106e+01    1.16594e+03    5.95417e+03   -2.22255e+02   -4.24232e+04
   Coul. recip.      Potential Pres. DC (bar) Pressure (bar)   Constr. rmsd
    3.24734e+02   -3.51190e+04    0.00000e+00   -7.79727e+02    8.63632e-07

           Step           Time
             45       45.00000

   Energies (kJ/mol)
           Bond            U-B    Proper Dih.  Improper Dih.      CMAP Dih.
    7.85596e+01    3.41579e+01    4.38350e+01    5.12063e-01   -2.61382e-01
          LJ-14     Coulomb-14        LJ (SR)  Disper. corr.   Coulomb (SR)
    1.06637e+01    1.16891e+03    5.91119e+03   -2.22255e+02   -4.25476e+04
   Coul. recip.      Potential Pres. DC (bar) Pressure (bar)   Constr. rmsd
    3.16862e+02   -3.52055e+04    0.00000e+00   -1.15305e+03    6.62626e-07

           Step           Time
             46       46.00000

   Energies (kJ/mol)
           Bond            U-B    Proper Dih.  Improper Dih.      CMAP Dih.
    2.18315e+01    1.92170e+01    4.36963e+01    4.13681e-01   -2.82629e-01
          LJ-14     Coulomb-14        LJ (SR)  Disper. corr.   Coulomb (SR)
    1.23630e+01    1.16592e+03    5.89544e+03   -2.22255e+02   -4.25689e+04
   Coul. recip.      Potential Pres. DC (bar) Pressure (bar)   Constr. rmsd
    3.12953e+02   -3.53196e+04    0.00000e+00   -1.02912e+03    7.01836e-07

           Step           Time
             47       47.00000

           Step           Time
             48       48.00000

   Energies (kJ/mol)
           Bond            U-B    Proper Dih.  Improper Dih.      CMAP Dih.
    1.43676e+01    2.18088e+01    4.37833e+01    4.68066e-01   -2.82816e-01
          LJ-14     Coulomb-14        LJ (SR)  Disper. corr.   Coulomb (SR)
    1.12387e+01    1.16793e+03    5.88409e+03   -2.22255e+02   -4.26096e+04
   Coul. recip.      Potential Pres. DC (bar) Pressure (bar)   Constr. rmsd
    3.11231e+02   -3.53772e+04    0.00000e+00   -1.18220e+03    8.02940e-07

           Step           Time
             49       49.00000

   Energies (kJ/mol)
           Bond            U-B    Proper Dih.  Improper Dih.      CMAP Dih.
    3.93406e+01    2.03779e+01    4.37382e+01    4.02358e-01   -3.05787e-01
          LJ-14     Coulomb-14        LJ (SR)  Disper. corr.   Coulomb (SR)
    1.24943e+01    1.16578e+03    5.86253e+03   -2.22255e+02   -4.26533e+04
   Coul. recip.      Potential Pres. DC (bar) Pressure (bar)   Constr. rmsd
    3.06341e+02   -3.54248e+04    0.00000e+00   -1.17035e+03    8.51815e-07

           Step           Time
             50       50.00000

   Energies (kJ/mol)
           Bond            U-B    Proper Dih.  Improper Dih.      CMAP Dih.
    3.04726e+01    2.48263e+01    4.38547e+01    4.84151e-01   -3.02190e-01
          LJ-14     Coulomb-14        LJ (SR)  Disper. corr.   Coulomb (SR)
    1.08953e+01    1.16859e+03    5.85265e+03   -2.22255e+02   -4.26960e+04
   Coul. recip.      Potential Pres. DC (bar) Pressure (bar)   Constr. rmsd
    3.05113e+02   -3.54817e+04    0.00000e+00   -1.36366e+03    1.01039e-06

           Step           Time
             51       51.00000

   Energies (kJ/mol)
           Bond            U-B    Proper Dih.  Improper Dih.      CMAP Dih.
    7.39818e+01    2.33123e+01    4.37833e+01    3.87718e-01   -3.29487e-01
          LJ-14     Coulomb-14        LJ (SR)  Disper. corr.   Coulomb (SR)
    1.27328e+01    1.16544e+03    5.83182e+03   -2.22255e+02   -4.27334e+04
   Coul. recip.      Potential Pres. DC (bar) Pressure (bar)   Constr. rmsd
    3.00086e+02   -3.55044e+04    0.00000e+00   -1.30159e+03    6.49888e-07

           Step           Time
             52       52.00000

   Energies (kJ/mol)
           Bond            U-B    Proper Dih.  Improper Dih.      CMAP Dih.
    6.61916e+01    3.13691e+01    4.39429e+01    5.10139e-01   -3.20050e-01
          LJ-14     Coulomb-14        LJ (SR)  Disper. corr.   Coulomb (SR)
    1.04588e+01    1.16935e+03    5.82391e+03   -2.22255e+02   -4.27789e+04
   Coul. recip.      Potential Pres. DC (bar) Pressure (bar)   Constr. rmsd
    2.99533e+02   -3.55562e+04    0.00000e+00   -1.55511e+03    7.16861e-07

           Step           Time
             53       53.00000

           Step           Time
             54       54.00000

   Energies (kJ/mol)
           Bond            U-B    Proper Dih.  Improper Dih.      CMAP Dih.
    5.75948e+00    1.74959e+01    4.38389e+01    4.29912e-01   -3.36358e-01
          LJ-14     Coulomb-14        LJ (SR)  Disper. corr.   Coulomb (SR)
    1.17030e+01    1.16724e+03    5.81289e+03   -2.22255e+02   -4.27943e+04
   Coul. recip.      Potential Pres. DC (bar) Pressure (bar)   Constr. rmsd
    2.96768e+02   -3.56608e+04    0.00000e+00   -1.44816e+03    5.75896e-07

           Step           Time
             55       55.00000

   Energies (kJ/mol)
           Bond            U-B    Proper Dih.  Improper Dih.      CMAP Dih.
    1.00371e+02    3.75325e+01    4.40618e+01    5.49020e-01   -3.56811e-01
          LJ-14     Coulomb-14        LJ (SR)  Disper. corr.   Coulomb (SR)
    1.00728e+01    1.17000e+03    5.77457e+03   -2.22255e+02   -4.29212e+04
   Coul. recip.      Potential Pres. DC (bar) Pressure (bar)   Constr. rmsd
    2.89615e+02   -3.57171e+04    0.00000e+00   -1.83815e+03    9.03949e-07

           Step           Time
             56       56.00000

   Energies (kJ/mol)
           Bond            U-B    Proper Dih.  Improper Dih.      CMAP Dih.
    2.14931e+01    1.78469e+01    4.39212e+01    4.17543e-01   -3.78728e-01
          LJ-14     Coulomb-14        LJ (SR)  Disper. corr.   Coulomb (SR)
    1.18589e+01    1.16704e+03    5.76189e+03   -2.22255e+02   -4.29360e+04
   Coul. recip.      Potential Pres. DC (bar) Pressure (bar)   Constr. rmsd
    2.86288e+02   -3.58478e+04    0.00000e+00   -1.67149e+03    1.09018e-06

           Step           Time
             57       57.00000

           Step           Time
             58       58.00000

   Energies (kJ/mol)
           Bond            U-B    Proper Dih.  Improper Dih.      CMAP Dih.
    1.98152e+01    2.20533e+01    4.40085e+01    4.87527e-01   -3.78194e-01
          LJ-14     Coulomb-14        LJ (SR)  Disper. corr.   Coulomb (SR)
    1.06706e+01    1.16897e+03    5.75310e+03   -2.22255e+02   -4.29746e+04
   Coul. recip.      Potential Pres. DC (bar) Pressure (bar)   Constr. rmsd
    2.84991e+02   -3.58931e+04    0.00000e+00   -1.83096e+03    6.05094e-07

           Step           Time
             59       59.00000

   Energies (kJ/mol)
           Bond            U-B    Proper Dih.  Improper Dih.      CMAP Dih.
    4.05864e+01    1.91556e+01    4.39687e+01    4.04380e-01   -4.00707e-01
          LJ-14     Coulomb-14        LJ (SR)  Disper. corr.   Coulomb (SR)
    1.20106e+01    1.16678e+03    5.73746e+03   -2.22255e+02   -4.30063e+04
   Coul. recip.      Potential Pres. DC (bar) Pressure (bar)   Constr. rmsd
    2.81214e+02   -3.59274e+04    0.00000e+00   -1.77779e+03    9.06373e-07

           Step           Time
             60       60.00000

   Energies (kJ/mol)
           Bond            U-B    Proper Dih.  Improper Dih.      CMAP Dih.
    4.11918e+01    2.61384e+01    4.40840e+01    5.08878e-01   -3.95932e-01
          LJ-14     Coulomb-14        LJ (SR)  Disper. corr.   Coulomb (SR)
    1.03233e+01    1.16949e+03    5.73026e+03   -2.22255e+02   -4.30468e+04
   Coul. recip.      Potential Pres. DC (bar) Pressure (bar)   Constr. rmsd
    2.80418e+02   -3.59671e+04    0.00000e+00   -1.98446e+03    9.08906e-07

           Step           Time
             61       61.00000

   Energies (kJ/mol)
           Bond            U-B    Proper Dih.  Improper Dih.      CMAP Dih.
    7.93453e+01    2.24766e+01    4.40213e+01    3.86215e-01   -4.23353e-01
          LJ-14     Coulomb-14        LJ (SR)  Disper. corr.   Coulomb (SR)
    1.22780e+01    1.16633e+03    5.71432e+03   -2.22255e+02   -4.30739e+04
   Coul. recip.      Potential Pres. DC (bar) Pressure (bar)   Constr. rmsd
    2.76317e+02   -3.59811e+04    0.00000e+00   -1.87769e+03    8.64479e-07

           Step           Time
             62       62.00000

   Energies (kJ/mol)
           Bond            U-B    Proper Dih.  Improper Dih.      CMAP Dih.
    8.71809e+01    3.46596e+01    4.41790e+01    5.42296e-01   -4.12341e-01
          LJ-14     Coulomb-14        LJ (SR)  Disper. corr.   Coulomb (SR)
    9.88124e+00    1.17011e+03    5.70918e+03   -2.22255e+02   -4.31173e+04
   Coul. recip.      Potential Pres. DC (bar) Pressure (bar)   Constr. rmsd
    2.76197e+02   -3.60080e+04    0.00000e+00   -2.15536e+03    8.11741e-07

           Step           Time
             63       63.00000

           Step           Time
             64       64.00000

   Energies (kJ/mol)
           Bond            U-B    Proper Dih.  Improper Dih.      CMAP Dih.
    4.48819e+00    1.64374e+01    4.40697e+01    4.37392e-01   -4.28458e-01
          LJ-14     Coulomb-14        LJ (SR)  Disper. corr.   Coulomb (SR)
    1.11842e+01    1.16804e+03    5.70021e+03   -2.22255e+02   -4.31280e+04
   Coul. recip.      Potential Pres. DC (bar) Pressure (bar)   Constr. rmsd
    2.73826e+02   -3.61320e+04    0.00000e+00   -2.01376e+03    7.83843e-07

           Step           Time
             65       65.00000

   Energies (kJ/mol)
           Bond            U-B    Proper Dih.  Improper Dih.      CMAP Dih.
    1.31504e+02    4.28847e+01    4.43305e+01    6.08352e-01   -4.59288e-01
          LJ-14     Coulomb-14        LJ (SR)  Disper. corr.   Coulomb (SR)
    9.46818e+00    1.17054e+03    5.66227e+03   -2.22255e+02   -4.32724e+04
   Coul. recip.      Potential Pres. DC (bar) Pressure (bar)   Constr. rmsd
    2.66308e+02   -3.61672e+04    0.00000e+00   -2.45098e+03    8.01507e-07

           Step           Time
             66       66.00000

   Energies (kJ/mol)
           Bond            U-B    Proper Dih.  Improper Dih.      CMAP Dih.
    2.06328e+01    1.65960e+01    4.41863e+01    4.25307e-01   -4.79885e-01
          LJ-14     Coulomb-14        LJ (SR)  Disper. corr.   Coulomb (SR)
    1.13296e+01    1.16772e+03    5.65176e+03   -2.22255e+02   -4.32815e+04
   Coul. recip.      Potential Pres. DC (bar) Pressure (bar)   Constr. rmsd
    2.63428e+02   -3.63282e+04    0.00000e+00   -2.23632e+03    8.62179e-07

           Step           Time
             67       67.00000

           Step           Time
             68       68.00000

   Energies (kJ/mol)
           Bond            U-B    Proper Dih.  Improper Dih.      CMAP Dih.
    2.85236e+01    2.31025e+01    4.42737e+01    5.16585e-01   -4.79934e-01
          LJ-14     Coulomb-14        LJ (SR)  Disper. corr.   Coulomb (SR)
    1.00768e+01    1.16952e+03    5.64502e+03   -2.22255e+02   -4.33195e+04
   Coul. recip.      Potential Pres. DC (bar) Pressure (bar)   Constr. rmsd
    2.62408e+02   -3.63588e+04    0.00000e+00   -2.40905e+03    6.55970e-07

           Step           Time
             69       69.00000

   Energies (kJ/mol)
           Bond            U-B    Proper Dih.  Improper Dih.      CMAP Dih.
    4.14825e+01    1.80470e+01    4.42400e+01    4.08556e-01   -5.01191e-01
          LJ-14     Coulomb-14        LJ (SR)  Disper. corr.   Coulomb (SR)
    1.14999e+01    1.16738e+03    5.63348e+03   -2.22255e+02   -4.33419e+04
   Coul. recip.      Potential Pres. DC (bar) Pressure (bar)   Constr. rmsd
    2.59421e+02   -3.63887e+04    0.00000e+00   -2.31669e+03    8.17130e-07

           Step           Time
             70       70.00000

   Energies (kJ/mol)
           Bond            U-B    Proper Dih.  Improper Dih.      CMAP Dih.
    5.72174e+01    2.86037e+01    4.43525e+01    5.44454e-01   -4.96739e-01
          LJ-14     Coulomb-14        LJ (SR)  Disper. corr.   Coulomb (SR)
    9.72588e+00    1.16991e+03    5.62855e+03   -2.22255e+02   -4.33814e+04
   Coul. recip.      Potential Pres. DC (bar) Pressure (bar)   Constr. rmsd
    2.58930e+02   -3.64063e+04    0.00000e+00   -2.54479e+03    7.36985e-07

           Step           Time
             71       71.00000

   Energies (kJ/mol)
           Bond            U-B    Proper Dih.  Improper Dih.      CMAP Dih.
    8.51980e+01    2.18196e+01    4.43011e+01    3.85511e-01   -5.22975e-01
          LJ-14     Coulomb-14        LJ (SR)  Disper. corr.   Coulomb (SR)
    1.17974e+01    1.16684e+03    5.61612e+03   -2.22255e+02   -4.33998e+04
   Coul. recip.      Potential Pres. DC (bar) Pressure (bar)   Constr. rmsd
    2.55527e+02   -3.64206e+04    0.00000e+00   -2.39206e+03    9.02329e-07

           Step           Time
             72       72.00000

           Step           Time
             73       73.00000

   Energies (kJ/mol)
           Bond            U-B    Proper Dih.  Improper Dih.      CMAP Dih.
    2.61095e+00    1.67134e+01    4.43221e+01    4.68568e-01   -5.16422e-01
          LJ-14     Coulomb-14        LJ (SR)  Disper. corr.   Coulomb (SR)
    1.04322e+01    1.16879e+03    5.61432e+03   -2.22255e+02   -4.34211e+04
   Coul. recip.      Potential Pres. DC (bar) Pressure (bar)   Constr. rmsd
    2.55587e+02   -3.65306e+04    0.00000e+00   -2.50485e+03    7.59882e-07

           Step           Time
             74       74.00000

   Energies (kJ/mol)
           Bond            U-B    Proper Dih.  Improper Dih.      CMAP Dih.
    1.31940e+02    2.52791e+01    4.44833e+01    3.75882e-01   -5.84678e-01
          LJ-14     Coulomb-14        LJ (SR)  Disper. corr.   Coulomb (SR)
    1.18579e+01    1.16653e+03    5.56946e+03   -2.22255e+02   -4.35709e+04
   Coul. recip.      Potential Pres. DC (bar) Pressure (bar)   Constr. rmsd
    2.44977e+02   -3.65988e+04    0.00000e+00   -2.64036e+03    7.28715e-07

           Step           Time
             75       75.00000

   Energies (kJ/mol)
           Bond            U-B    Proper Dih.  Improper Dih.      CMAP Dih.
    1.23045e+01    1.90792e+01    4.45018e+01    5.06040e-01   -5.75220e-01
          LJ-14     Coulomb-14        LJ (SR)  Disper. corr.   Coulomb (SR)
    9.89122e+00    1.16921e+03    5.56867e+03   -2.22255e+02   -4.35968e+04
   Coul. recip.      Potential Pres. DC (bar) Pressure (bar)   Constr. rmsd
    2.45370e+02   -3.67500e+04    0.00000e+00   -2.80156e+03    5.59328e-07

           Step           Time
             76       76.00000

           Step           Time
             77       77.00000

   Energies (kJ/mol)
           Bond            U-B    Proper Dih.  Improper Dih.      CMAP Dih.
    3.29854e+01    1.64339e+01    4.45133e+01    4.21165e-01   -5.95690e-01
          LJ-14     Coulomb-14        LJ (SR)  Disper. corr.   Coulomb (SR)
    1.09351e+01    1.16775e+03    5.55873e+03   -2.22255e+02   -4.36225e+04
   Coul. recip.      Potential Pres. DC (bar) Pressure (bar)   Constr. rmsd
    2.42810e+02   -3.67708e+04    0.00000e+00   -2.74199e+03    8.11741e-07

           Step           Time
             78       78.00000

   Energies (kJ/mol)
           Bond            U-B    Proper Dih.  Improper Dih.      CMAP Dih.
    2.69174e+01    2.21790e+01    4.45703e+01    5.36111e-01   -5.94881e-01
          LJ-14     Coulomb-14        LJ (SR)  Disper. corr.   Coulomb (SR)
    9.59935e+00    1.16941e+03    5.55565e+03   -2.22255e+02   -4.36532e+04
   Coul. recip.      Potential Pres. DC (bar) Pressure (bar)   Constr. rmsd
    2.42425e+02   -3.68048e+04    0.00000e+00   -2.91160e+03    8.41200e-07

           Step           Time
             79       79.00000

   Energies (kJ/mol)
           Bond            U-B    Proper Dih.  Improper Dih.      CMAP Dih.
    6.22667e+01    1.87435e+01    4.45751e+01    4.03247e-01   -6.16945e-01
          LJ-14     Coulomb-14        LJ (SR)  Disper. corr.   Coulomb (SR)
    1.11347e+01    1.16734e+03    5.54563e+03   -2.22255e+02   -4.36738e+04
   Coul. recip.      Potential Pres. DC (bar) Pressure (bar)   Constr. rmsd
    2.39708e+02   -3.68069e+04    0.00000e+00   -2.80196e+03    8.61816e-07

           Step           Time
             80       80.00000

   Energies (kJ/mol)
           Bond            U-B    Proper Dih.  Improper Dih.      CMAP Dih.
    5.92462e+01    2.85022e+01    4.46486e+01    5.74036e-01   -6.12864e-01
          LJ-14     Coulomb-14        LJ (SR)  Disper. corr.   Coulomb (SR)
    9.23681e+00    1.16969e+03    5.54384e+03   -2.22255e+02   -4.37081e+04
   Coul. recip.      Potential Pres. DC (bar) Pressure (bar)   Constr. rmsd
    2.39715e+02   -3.68355e+04    0.00000e+00   -3.03619e+03    7.72294e-07

           Step           Time
             81       81.00000

           Step           Time
             82       82.00000

   Energies (kJ/mol)
           Bond            U-B    Proper Dih.  Improper Dih.      CMAP Dih.
    4.47636e+00    1.47732e+01    4.46017e+01    4.59940e-01   -6.24484e-01
          LJ-14     Coulomb-14        LJ (SR)  Disper. corr.   Coulomb (SR)
    1.02619e+01    1.16836e+03    5.53816e+03   -2.22255e+02   -4.37157e+04
   Coul. recip.      Potential Pres. DC (bar) Pressure (bar)   Constr. rmsd
    2.38164e+02   -3.69193e+04    0.00000e+00   -2.90975e+03    7.97849e-07

           Step           Time
             83       83.00000

   Energies (kJ/mol)
           Bond            U-B    Proper Dih.  Improper Dih.      CMAP Dih.
    9.19078e+01    3.47096e+01    4.47669e+01    6.40928e-01   -6.54888e-01
          LJ-14     Coulomb-14        LJ (SR)  Disper. corr.   Coulomb (SR)
    8.91304e+00    1.16972e+03    5.52216e+03   -2.22255e+02   -4.38075e+04
   Coul. recip.      Potential Pres. DC (bar) Pressure (bar)   Constr. rmsd
    2.34510e+02   -3.69231e+04    0.00000e+00   -3.21417e+03    9.45200e-07

           Step           Time
             84       84.00000

   Energies (kJ/mol)
           Bond            U-B    Proper Dih.  Improper Dih.      CMAP Dih.
    1.73594e+01    1.48356e+01    4.47090e+01    4.47705e-01   -6.67538e-01
          LJ-14     Coulomb-14        LJ (SR)  Disper. corr.   Coulomb (SR)
    1.03829e+01    1.16794e+03    5.51532e+03   -2.22255e+02   -4.38137e+04
   Coul. recip.      Potential Pres. DC (bar) Pressure (bar)   Constr. rmsd
    2.32604e+02   -3.70330e+04    0.00000e+00   -3.02390e+03    7.86106e-07

           Step           Time
             85       85.00000

           Step           Time
             86       86.00000

   Energies (kJ/mol)
           Bond            U-B    Proper Dih.  Improper Dih.      CMAP Dih.
    1.92842e+01    2.02299e+01    4.47521e+01    5.47204e-01   -6.72260e-01
          LJ-14     Coulomb-14        LJ (SR)  Disper. corr.   Coulomb (SR)
    9.38981e+00    1.16902e+03    5.51225e+03   -2.22255e+02   -4.38429e+04
   Coul. recip.      Potential Pres. DC (bar) Pressure (bar)   Constr. rmsd
    2.32008e+02   -3.70583e+04    0.00000e+00   -3.16529e+03    9.02561e-07

           Step           Time
             87       87.00000

   Energies (kJ/mol)
           Bond            U-B    Proper Dih.  Improper Dih.      CMAP Dih.
    3.34807e+01    1.57952e+01    4.47692e+01    4.32178e-01   -6.88816e-01
          LJ-14     Coulomb-14        LJ (SR)  Disper. corr.   Coulomb (SR)
    1.05112e+01    1.16764e+03    5.50483e+03   -2.22255e+02   -4.38608e+04
   Coul. recip.      Potential Pres. DC (bar) Pressure (bar)   Constr. rmsd
    2.29975e+02   -3.70763e+04    0.00000e+00   -3.07413e+03    8.76721e-07

           Step           Time
             88       88.00000

   Energies (kJ/mol)
           Bond            U-B    Proper Dih.  Improper Dih.      CMAP Dih.
    3.97962e+01    2.44327e+01    4.48192e+01    5.79437e-01   -6.92060e-01
          LJ-14     Coulomb-14        LJ (SR)  Disper. corr.   Coulomb (SR)
    9.10273e+00    1.16916e+03    5.50284e+03   -2.22255e+02   -4.38923e+04
   Coul. recip.      Potential Pres. DC (bar) Pressure (bar)   Constr. rmsd
    2.29679e+02   -3.70948e+04    0.00000e+00   -3.26630e+03    6.61047e-07

           Step           Time
             89       89.00000

   Energies (kJ/mol)
           Bond            U-B    Proper Dih.  Improper Dih.      CMAP Dih.
    6.68903e+01    1.84637e+01    4.48389e+01    4.09330e-01   -7.10319e-01
          LJ-14     Coulomb-14        LJ (SR)  Disper. corr.   Coulomb (SR)
    1.07399e+01    1.16722e+03    5.49480e+03   -2.22255e+02   -4.39063e+04
   Coul. recip.      Potential Pres. DC (bar) Pressure (bar)   Constr. rmsd
    2.27403e+02   -3.70985e+04    0.00000e+00   -3.11957e+03    8.46277e-07

           Step           Time
             90       90.00000

   Energies (kJ/mol)
           Bond            U-B    Proper Dih.  Improper Dih.      CMAP Dih.
    8.35038e+01    3.28362e+01    4.48999e+01    6.28196e-01   -7.11481e-01
          LJ-14     Coulomb-14        LJ (SR)  Disper. corr.   Coulomb (SR)
    8.74173e+00    1.16936e+03    5.49430e+03   -2.22255e+02   -4.39413e+04
   Coul. recip.      Potential Pres. DC (bar) Pressure (bar)   Constr. rmsd
    2.27512e+02   -3.71025e+04    0.00000e+00   -3.38766e+03    7.62490e-07

           Step           Time
             91       91.00000

           Step           Time
             92       92.00000

   Energies (kJ/mol)
           Bond            U-B    Proper Dih.  Improper Dih.      CMAP Dih.
    3.26602e+00    1.43331e+01    4.48520e+01    4.78531e-01   -7.19713e-01
          LJ-14     Coulomb-14        LJ (SR)  Disper. corr.   Coulomb (SR)
    9.81017e+00    1.16816e+03    5.48936e+03   -2.22255e+02   -4.39457e+04
   Coul. recip.      Potential Pres. DC (bar) Pressure (bar)   Constr. rmsd
    2.26155e+02   -3.72123e+04    0.00000e+00   -3.22865e+03    7.05992e-07

           Step           Time
             93       93.00000

           Step           Time
             94       94.00000

   Energies (kJ/mol)
           Bond            U-B    Proper Dih.  Improper Dih.      CMAP Dih.
    2.70608e+01    2.17104e+01    4.49306e+01    5.88753e-01   -7.48867e-01
          LJ-14     Coulomb-14        LJ (SR)  Disper. corr.   Coulomb (SR)
    9.04840e+00    1.16873e+03    5.47991e+03   -2.22255e+02   -4.40075e+04
   Coul. recip.      Potential Pres. DC (bar) Pressure (bar)   Constr. rmsd
    2.23720e+02   -3.72548e+04    0.00000e+00   -3.39877e+03    7.61530e-07

           Step           Time
             95       95.00000

   Energies (kJ/mol)
           Bond            U-B    Proper Dih.  Improper Dih.      CMAP Dih.
    8.17918e+00    1.39934e+01    4.49383e+01    4.79690e-01   -7.57353e-01
          LJ-14     Coulomb-14        LJ (SR)  Disper. corr.   Coulomb (SR)
    9.84743e+00    1.16789e+03    5.47542e+03   -2.22255e+02   -4.40170e+04
   Coul. recip.      Potential Pres. DC (bar) Pressure (bar)   Constr. rmsd
    2.22488e+02   -3.72968e+04    0.00000e+00   -3.30697e+03    7.38826e-07

           Step           Time
             96       96.00000

   Energies (kJ/mol)
           Bond            U-B    Proper Dih.  Improper Dih.      CMAP Dih.
    4.52619e+01    2.53122e+01    4.50068e+01    6.17658e-01   -7.76626e-01
          LJ-14     Coulomb-14        LJ (SR)  Disper. corr.   Coulomb (SR)
    8.80357e+00    1.16876e+03    5.47079e+03   -2.22255e+02   -4.40612e+04
   Coul. recip.      Potential Pres. DC (bar) Pressure (bar)   Constr. rmsd
    2.21267e+02   -3.72984e+04    0.00000e+00   -3.49643e+03    5.13960e-07

           Step           Time
             97       97.00000

   Energies (kJ/mol)
           Bond            U-B    Proper Dih.  Improper Dih.      CMAP Dih.
    2.12313e+01    1.44271e+01    4.50135e+01    4.59608e-01   -7.84827e-01
          LJ-14     Coulomb-14        LJ (SR)  Disper. corr.   Coulomb (SR)
    9.97005e+00    1.16757e+03    5.46545e+03   -2.22255e+02   -4.40693e+04
   Coul. recip.      Potential Pres. DC (bar) Pressure (bar)   Constr. rmsd
    2.19784e+02   -3.73485e+04    0.00000e+00   -3.35601e+03    1.00852e-06

           Step           Time
             98       98.00000

           Step           Time
             99       99.00000

   Energies (kJ/mol)
           Bond            U-B    Proper Dih.  Improper Dih.      CMAP Dih.
    6.75544e+00    1.67749e+01    4.50201e+01    5.46436e-01   -7.92083e-01
          LJ-14     Coulomb-14        LJ (SR)  Disper. corr.   Coulomb (SR)
    9.18907e+00    1.16826e+03    5.46425e+03   -2.22255e+02   -4.40894e+04
   Coul. recip.      Potential Pres. DC (bar) Pressure (bar)   Constr. rmsd
    2.19478e+02   -3.73821e+04    0.00000e+00   -3.45949e+03    8.11613e-07

           Step           Time
            100      100.00000

   Energies (kJ/mol)
           Bond            U-B    Proper Dih.  Improper Dih.      CMAP Dih.
    3.55403e+01    1.52743e+01    4.50834e+01    4.49403e-01   -8.11213e-01
          LJ-14     Coulomb-14        LJ (SR)  Disper. corr.   Coulomb (SR)
    1.00521e+01    1.16731e+03    5.45693e+03   -2.22255e+02   -4.41170e+04
   Coul. recip.      Potential Pres. DC (bar) Pressure (bar)   Constr. rmsd
    2.17419e+02   -3.73920e+04    0.00000e+00   -3.40396e+03    7.39957e-07

           Step           Time
            101      101.00000

   Energies (kJ/mol)
           Bond            U-B    Proper Dih.  Improper Dih.      CMAP Dih.
    1.66586e+01    1.91872e+01    4.50853e+01    5.77670e-01   -8.20404e-01
          LJ-14     Coulomb-14        LJ (SR)  Disper. corr.   Coulomb (SR)
    8.93683e+00    1.16828e+03    5.45627e+03   -2.22255e+02   -4.41403e+04
   Coul. recip.      Potential Pres. DC (bar) Pressure (bar)   Constr. rmsd
    2.17244e+02   -3.74311e+04    0.00000e+00   -3.54858e+03    8.16618e-07

           Step           Time
            102      102.00000

           Step           Time
            103      103.00000

   Energies (kJ/mol)
           Bond            U-B    Proper Dih.  Improper Dih.      CMAP Dih.
    5.61419e+00    1.37422e+01    4.51023e+01    4.96761e-01   -8.27617e-01
          LJ-14     Coulomb-14        LJ (SR)  Disper. corr.   Coulomb (SR)
    9.53553e+00    1.16769e+03    5.45272e+03   -2.22255e+02   -4.41501e+04
   Coul. recip.      Potential Pres. DC (bar) Pressure (bar)   Constr. rmsd
    2.16248e+02   -3.74621e+04    0.00000e+00   -3.48076e+03    9.68785e-07

           Step           Time
            104      104.00000

   Energies (kJ/mol)
           Bond            U-B    Proper Dih.  Improper Dih.      CMAP Dih.
    2.73733e+01    2.14968e+01    4.51495e+01    6.12374e-01   -8.52058e-01
          LJ-14     Coulomb-14        LJ (SR)  Disper. corr.   Coulomb (SR)
    8.74012e+00    1.16822e+03    5.44869e+03   -2.22255e+02   -4.41904e+04
   Coul. recip.      Potential Pres. DC (bar) Pressure (bar)   Constr. rmsd
    2.15043e+02   -3.74782e+04    0.00000e+00   -3.63047e+03    7.46424e-07

           Step           Time
            105      105.00000

   Energies (kJ/mol)
           Bond            U-B    Proper Dih.  Improper Dih.      CMAP Dih.
    1.34266e+01    1.37437e+01    4.51743e+01    4.86211e-01   -8.58129e-01
          LJ-14     Coulomb-14        LJ (SR)  Disper. corr.   Coulomb (SR)
    9.60841e+00    1.16742e+03    5.44450e+03   -2.22255e+02   -4.41994e+04
   Coul. recip.      Potential Pres. DC (bar) Pressure (bar)   Constr. rmsd
    2.13870e+02   -3.75142e+04    0.00000e+00   -3.52594e+03    6.99300e-07

           Step           Time
            106      106.00000

           Step           Time
            107      107.00000

   Energies (kJ/mol)
           Bond            U-B    Proper Dih.  Improper Dih.      CMAP Dih.
    4.65444e+00    1.59263e+01    4.51781e+01    5.58585e-01   -8.68750e-01
          LJ-14     Coulomb-14        LJ (SR)  Disper. corr.   Coulomb (SR)
    9.02272e+00    1.16785e+03    5.44341e+03   -2.22255e+02   -4.42173e+04
   Coul. recip.      Potential Pres. DC (bar) Pressure (bar)   Constr. rmsd
    2.13516e+02   -3.75403e+04    0.00000e+00   -3.60980e+03    7.67816e-07

           Step           Time
            108      108.00000

   Energies (kJ/mol)
           Bond            U-B    Proper Dih.  Improper Dih.      CMAP Dih.
    2.19738e+01    1.40674e+01    4.52423e+01    4.79133e-01   -8.86999e-01
          LJ-14     Coulomb-14        LJ (SR)  Disper. corr.   Coulomb (SR)
    9.64896e+00    1.16720e+03    5.43745e+03   -2.22255e+02   -4.42443e+04
   Coul. recip.      Potential Pres. DC (bar) Pressure (bar)   Constr. rmsd
    2.11772e+02   -3.75596e+04    0.00000e+00   -3.56986e+03    8.27423e-07

           Step           Time
            109      109.00000

   Energies (kJ/mol)
           Bond            U-B    Proper Dih.  Improper Dih.      CMAP Dih.
    1.04921e+01    1.75273e+01    4.52396e+01    5.85738e-01   -9.00873e-01
          LJ-14     Coulomb-14        LJ (SR)  Disper. corr.   Coulomb (SR)
    8.81402e+00    1.16780e+03    5.43677e+03   -2.22255e+02   -4.42651e+04
   Coul. recip.      Potential Pres. DC (bar) Pressure (bar)   Constr. rmsd
    2.11496e+02   -3.75895e+04    0.00000e+00   -3.68602e+03    7.62216e-07

           Step           Time
            110      110.00000

   Energies (kJ/mol)
           Bond            U-B    Proper Dih.  Improper Dih.      CMAP Dih.
    3.84135e+01    1.51048e+01    4.53131e+01    4.65261e-01   -9.14069e-01
          LJ-14     Coulomb-14        LJ (SR)  Disper. corr.   Coulomb (SR)
    9.75086e+00    1.16694e+03    5.43125e+03   -2.22255e+02   -4.42848e+04
   Coul. recip.      Potential Pres. DC (bar) Pressure (bar)   Constr. rmsd
    2.09879e+02   -3.75908e+04    0.00000e+00   -3.60492e+03    7.28715e-07

           Step           Time
            111      111.00000

   Energies (kJ/mol)
           Bond            U-B    Proper Dih.  Improper Dih.      CMAP Dih.
    2.46096e+01    2.07468e+01    4.52990e+01    6.22952e-01   -9.32359e-01
          LJ-14     Coulomb-14        LJ (SR)  Disper. corr.   Coulomb (SR)
    8.56275e+00    1.16778e+03    5.43124e+03   -2.22255e+02   -4.43090e+04
   Coul. recip.      Potential Pres. DC (bar) Pressure (bar)   Constr. rmsd
    2.09735e+02   -3.76235e+04    0.00000e+00   -3.76788e+03    8.97220e-07

           Step           Time
            112      112.00000

           Step           Time
            113      113.00000

   Energies (kJ/mol)
           Bond            U-B    Proper Dih.  Improper Dih.      CMAP Dih.
    4.79553e+00    1.34713e+01    4.53206e+01    5.21990e-01   -9.35191e-01
          LJ-14     Coulomb-14        LJ (SR)  Disper. corr.   Coulomb (SR)
    9.20001e+00    1.16726e+03    5.42825e+03   -2.22255e+02   -4.43158e+04
   Coul. recip.      Potential Pres. DC (bar) Pressure (bar)   Constr. rmsd
    2.08899e+02   -3.76612e+04    0.00000e+00   -3.68205e+03    7.77015e-07

           Step           Time
            114      114.00000

   Energies (kJ/mol)
           Bond            U-B    Proper Dih.  Improper Dih.      CMAP Dih.
    3.94486e+01    2.38341e+01    4.53705e+01    6.71194e-01   -9.76784e-01
          LJ-14     Coulomb-14        LJ (SR)  Disper. corr.   Coulomb (SR)
    8.35678e+00    1.16765e+03    5.42457e+03   -2.22255e+02   -4.43625e+04
   Coul. recip.      Potential Pres. DC (bar) Pressure (bar)   Constr. rmsd
    2.07539e+02   -3.76683e+04    0.00000e+00   -3.85441e+03    8.32459e-07

           Step           Time
            115      115.00000

   Energies (kJ/mol)
           Bond            U-B    Proper Dih.  Improper Dih.      CMAP Dih.
    1.31491e+01    1.34073e+01    4.54051e+01    5.11249e-01   -9.75200e-01
          LJ-14     Coulomb-14        LJ (SR)  Disper. corr.   Coulomb (SR)
    9.27823e+00    1.16697e+03    5.42092e+03   -2.22255e+02   -4.43683e+04
   Coul. recip.      Potential Pres. DC (bar) Pressure (bar)   Constr. rmsd
    2.06537e+02   -3.77153e+04    0.00000e+00   -3.72524e+03    7.43619e-07

           Step           Time
            116      116.00000

           Step           Time
            117      117.00000

   Energies (kJ/mol)
           Bond            U-B    Proper Dih.  Improper Dih.      CMAP Dih.
    7.41933e+00    1.65388e+01    4.54010e+01    6.00749e-01   -9.93572e-01
          LJ-14     Coulomb-14        LJ (SR)  Disper. corr.   Coulomb (SR)
    8.65374e+00    1.16732e+03    5.42023e+03   -2.22255e+02   -4.43875e+04
   Coul. recip.      Potential Pres. DC (bar) Pressure (bar)   Constr. rmsd
    2.06182e+02   -3.77384e+04    0.00000e+00   -3.81950e+03    7.81039e-07

           Step           Time
            118      118.00000

   Energies (kJ/mol)
           Bond            U-B    Proper Dih.  Improper Dih.      CMAP Dih.
    2.27512e+01    1.37947e+01    4.54699e+01    5.01953e-01   -1.00491e+00
          LJ-14     Coulomb-14        LJ (SR)  Disper. corr.   Coulomb (SR)
    9.34027e+00    1.16675e+03    5.41598e+03   -2.22255e+02   -4.44060e+04
   Coul. recip.      Potential Pres. DC (bar) Pressure (bar)   Constr. rmsd
    2.04886e+02   -3.77498e+04    0.00000e+00   -3.75630e+03    7.36134e-07

           Step           Time
            119      119.00000

   Energies (kJ/mol)
           Bond            U-B    Proper Dih.  Improper Dih.      CMAP Dih.
    1.61058e+01    1.87036e+01    4.54550e+01    6.33127e-01   -1.02931e+00
          LJ-14     Coulomb-14        LJ (SR)  Disper. corr.   Coulomb (SR)
    8.45087e+00    1.16725e+03    5.41580e+03   -2.22255e+02   -4.44277e+04
   Coul. recip.      Potential Pres. DC (bar) Pressure (bar)   Constr. rmsd
    2.04619e+02   -3.77740e+04    0.00000e+00   -3.88738e+03    8.37590e-07

           Step           Time
            120      120.00000

           Step           Time
            121      121.00000

   Energies (kJ/mol)
           Bond            U-B    Proper Dih.  Improper Dih.      CMAP Dih.
    3.33924e+00    1.34082e+01    4.54831e+01    5.52017e-01   -1.03096e+00
          LJ-14     Coulomb-14        LJ (SR)  Disper. corr.   Coulomb (SR)
    8.92580e+00    1.16691e+03    5.41352e+03   -2.22255e+02   -4.44348e+04
   Coul. recip.      Potential Pres. DC (bar) Pressure (bar)   Constr. rmsd
    2.03960e+02   -3.78019e+04    0.00000e+00   -3.82327e+03    8.76602e-07

           Step           Time
            122      122.00000

   Energies (kJ/mol)
           Bond            U-B    Proper Dih.  Improper Dih.      CMAP Dih.
    2.51763e+01    2.07149e+01    4.55269e+01    6.74303e-01   -1.08178e+00
          LJ-14     Coulomb-14        LJ (SR)  Disper. corr.   Coulomb (SR)
    8.26984e+00    1.16708e+03    5.41011e+03   -2.22255e+02   -4.44808e+04
   Coul. recip.      Potential Pres. DC (bar) Pressure (bar)   Constr. rmsd
    2.02529e+02   -3.78240e+04    0.00000e+00   -3.96411e+03    6.97654e-07

           Step           Time
            123      123.00000

   Energies (kJ/mol)
           Bond            U-B    Proper Dih.  Improper Dih.      CMAP Dih.
    8.13699e+00    1.31097e+01    4.55690e+01    5.46669e-01   -1.07860e+00
          LJ-14     Coulomb-14        LJ (SR)  Disper. corr.   Coulomb (SR)
    8.95820e+00    1.16664e+03    5.40734e+03   -2.22255e+02   -4.44871e+04
   Coul. recip.      Potential Pres. DC (bar) Pressure (bar)   Constr. rmsd
    2.01750e+02   -3.78584e+04    0.00000e+00   -3.86678e+03    8.30197e-07

           Step           Time
            124      124.00000

           Step           Time
            125      125.00000

   Energies (kJ/mol)
           Bond            U-B    Proper Dih.  Improper Dih.      CMAP Dih.
    5.48469e+00    1.58139e+01    4.55663e+01    6.21075e-01   -1.10121e+00
          LJ-14     Coulomb-14        LJ (SR)  Disper. corr.   Coulomb (SR)
    8.48657e+00    1.16683e+03    5.40668e+03   -2.22255e+02   -4.45050e+04
   Coul. recip.      Potential Pres. DC (bar) Pressure (bar)   Constr. rmsd
    2.01352e+02   -3.78776e+04    0.00000e+00   -3.94340e+03    7.84110e-07

           Step           Time
            126      126.00000

   Energies (kJ/mol)
           Bond            U-B    Proper Dih.  Improper Dih.      CMAP Dih.
    1.37349e+01    1.31617e+01    4.56302e+01    5.40111e-01   -1.11167e+00
          LJ-14     Coulomb-14        LJ (SR)  Disper. corr.   Coulomb (SR)
    8.98893e+00    1.16645e+03    5.40348e+03   -2.22255e+02   -4.45222e+04
   Coul. recip.      Potential Pres. DC (bar) Pressure (bar)   Constr. rmsd
    2.00306e+02   -3.78933e+04    0.00000e+00   -3.89495e+03    9.23052e-07

           Step           Time
            127      127.00000

   Energies (kJ/mol)
           Bond            U-B    Proper Dih.  Improper Dih.      CMAP Dih.
    1.08585e+01    1.72965e+01    4.56166e+01    6.48906e-01   -1.14133e+00
          LJ-14     Coulomb-14        LJ (SR)  Disper. corr.   Coulomb (SR)
    8.31981e+00    1.16672e+03    5.40324e+03   -2.22255e+02   -4.45420e+04
   Coul. recip.      Potential Pres. DC (bar) Pressure (bar)   Constr. rmsd
    1.99966e+02   -3.79128e+04    0.00000e+00   -4.00026e+03    5.13757e-07

           Step           Time
            128      128.00000

   Energies (kJ/mol)
           Bond            U-B    Proper Dih.  Improper Dih.      CMAP Dih.
    2.49244e+01    1.36591e+01    4.56970e+01    5.27770e-01   -1.14432e+00
          LJ-14     Coulomb-14        LJ (SR)  Disper. corr.   Coulomb (SR)
    9.06574e+00    1.16624e+03    5.39988e+03   -2.22255e+02   -4.45557e+04
   Coul. recip.      Potential Pres. DC (bar) Pressure (bar)   Constr. rmsd
    1.98921e+02   -3.79201e+04    0.00000e+00   -3.91799e+03    5.70060e-07

           Step           Time
            129      129.00000

   Energies (kJ/mol)
           Bond            U-B    Proper Dih.  Improper Dih.      CMAP Dih.
    2.29135e+01    2.01127e+01    4.56662e+01    6.87456e-01   -1.18409e+00
          LJ-14     Coulomb-14        LJ (SR)  Disper. corr.   Coulomb (SR)
    8.11576e+00    1.16662e+03    5.40024e+03   -2.22255e+02   -4.45782e+04
   Coul. recip.      Potential Pres. DC (bar) Pressure (bar)   Constr. rmsd
    1.98671e+02   -3.79386e+04    0.00000e+00   -4.06507e+03    8.06317e-07

           Step           Time
            130      130.00000

           Step           Time
            131      131.00000

   Energies (kJ/mol)
           Bond            U-B    Proper Dih.  Improper Dih.      CMAP Dih.
    2.93186e+00    1.32731e+01    4.57001e+01    5.87265e-01   -1.17886e+00
          LJ-14     Coulomb-14        LJ (SR)  Disper. corr.   Coulomb (SR)
    8.62281e+00    1.16635e+03    5.39827e+03   -2.22255e+02   -4.45831e+04
   Coul. recip.      Potential Pres. DC (bar) Pressure (bar)   Constr. rmsd
    1.98113e+02   -3.79726e+04    0.00000e+00   -3.98640e+03    5.24624e-07

           Step           Time
            132      132.00000

   Energies (kJ/mol)
           Bond            U-B    Proper Dih.  Improper Dih.      CMAP Dih.
    3.53176e+01    2.27697e+01    4.57512e+01    7.45638e-01   -1.26295e+00
          LJ-14     Coulomb-14        LJ (SR)  Disper. corr.   Coulomb (SR)
    7.91964e+00    1.16636e+03    5.39522e+03   -2.22255e+02   -4.46387e+04
   Coul. recip.      Potential Pres. DC (bar) Pressure (bar)   Constr. rmsd
    1.96424e+02   -3.79917e+04    0.00000e+00   -4.14949e+03    7.62353e-07

           Step           Time
            133      133.00000

   Energies (kJ/mol)
           Bond            U-B    Proper Dih.  Improper Dih.      CMAP Dih.
    8.09158e+00    1.28901e+01    4.58048e+01    5.84468e-01   -1.24746e+00
          LJ-14     Coulomb-14        LJ (SR)  Disper. corr.   Coulomb (SR)
    8.65238e+00    1.16604e+03    5.39275e+03   -2.22255e+02   -4.46427e+04
   Coul. recip.      Potential Pres. DC (bar) Pressure (bar)   Constr. rmsd
    1.95765e+02   -3.80357e+04    0.00000e+00   -4.03175e+03    5.54072e-07

           Step           Time
            134      134.00000

           Step           Time
            135      135.00000

   Energies (kJ/mol)
           Bond            U-B    Proper Dih.  Improper Dih.      CMAP Dih.
    8.11112e+00    1.64430e+01    4.57943e+01    6.75240e-01   -1.28283e+00
          LJ-14     Coulomb-14        LJ (SR)  Disper. corr.   Coulomb (SR)
    8.14777e+00    1.16614e+03    5.39249e+03   -2.22255e+02   -4.46615e+04
   Coul. recip.      Potential Pres. DC (bar) Pressure (bar)   Constr. rmsd
    1.95366e+02   -3.80519e+04    0.00000e+00   -4.11741e+03    6.68592e-07

           Step           Time
            136      136.00000

   Energies (kJ/mol)
           Bond            U-B    Proper Dih.  Improper Dih.      CMAP Dih.
    1.39476e+01    1.29491e+01    4.58651e+01    5.76179e-01   -1.28418e+00
          LJ-14     Coulomb-14        LJ (SR)  Disper. corr.   Coulomb (SR)
    8.68945e+00    1.16586e+03    5.39008e+03   -2.22255e+02   -4.46740e+04
   Coul. recip.      Potential Pres. DC (bar) Pressure (bar)   Constr. rmsd
    1.94561e+02   -3.80650e+04    0.00000e+00   -4.05319e+03    7.56851e-07

           Step           Time
            137      137.00000

   Energies (kJ/mol)
           Bond            U-B    Proper Dih.  Improper Dih.      CMAP Dih.
    1.58744e+01    1.84091e+01    4.58398e+01    7.08273e-01   -1.33085e+00
          LJ-14     Coulomb-14        LJ (SR)  Disper. corr.   Coulomb (SR)
    7.98121e+00    1.16602e+03    5.39029e+03   -2.22255e+02   -4.46947e+04
   Coul. recip.      Potential Pres. DC (bar) Pressure (bar)   Constr. rmsd
    1.94218e+02   -3.80790e+04    0.00000e+00   -4.17083e+03    7.15986e-07

           Step           Time
            138      138.00000

   Energies (kJ/mol)
           Bond            U-B    Proper Dih.  Improper Dih.      CMAP Dih.
    2.51131e+01    1.34443e+01    4.59316e+01    5.63243e-01   -1.32059e+00
          LJ-14     Coulomb-14        LJ (SR)  Disper. corr.   Coulomb (SR)
    8.76514e+00    1.16567e+03    5.38759e+03   -2.22255e+02   -4.47042e+04
   Coul. recip.      Potential Pres. DC (bar) Pressure (bar)   Constr. rmsd
    1.93392e+02   -3.80873e+04    0.00000e+00   -4.07074e+03    9.08446e-07

           Step           Time
            139      139.00000

   Energies (kJ/mol)
           Bond            U-B    Proper Dih.  Improper Dih.      CMAP Dih.
    3.19401e+01    2.19658e+01    4.58856e+01    7.53904e-01   -1.38329e+00
          LJ-14     Coulomb-14        LJ (SR)  Disper. corr.   Coulomb (SR)
    7.78072e+00    1.16588e+03    5.38844e+03   -2.22255e+02   -4.47274e+04
   Coul. recip.      Potential Pres. DC (bar) Pressure (bar)   Constr. rmsd
    1.93128e+02   -3.80953e+04    0.00000e+00   -4.23390e+03    8.55976e-07

           Step           Time
            140      140.00000

   Energies (kJ/mol)
           Bond            U-B    Proper Dih.  Improper Dih.      CMAP Dih.
    4.77468e+01    1.49822e+01    4.60102e+01    5.42109e-01   -1.35536e+00
          LJ-14     Coulomb-14        LJ (SR)  Disper. corr.   Coulomb (SR)
    8.90784e+00    1.16545e+03    5.38523e+03   -2.22255e+02   -4.47334e+04
   Coul. recip.      Potential Pres. DC (bar) Pressure (bar)   Constr. rmsd
    1.92249e+02   -3.80959e+04    0.00000e+00   -4.08420e+03    7.20641e-07

           Step           Time
            141      141.00000

           Step           Time
            142      142.00000

   Energies (kJ/mol)
           Bond            U-B    Proper Dih.  Improper Dih.      CMAP Dih.
    2.19979e+00    1.41731e+01    4.59391e+01    6.56400e-01   -1.39447e+00
          LJ-14     Coulomb-14        LJ (SR)  Disper. corr.   Coulomb (SR)
    8.15006e+00    1.16566e+03    5.38595e+03   -2.22255e+02   -4.47468e+04
   Coul. recip.      Potential Pres. DC (bar) Pressure (bar)   Constr. rmsd
    1.92155e+02   -3.81556e+04    0.00000e+00   -4.17492e+03    8.00464e-07


Steepest Descents converged to Fmax < 1000 in 143 steps
Potential Energy  = -3.8155609e+04
Maximum force     =  6.6235468e+02 on atom 21
Norm of force     =  6.4391358e+01
Finished mdrun on rank 0 Wed Jan 13 04:09:31 2021

