run-0/pullf-prd.0.xvg
run-10/pullf-prd.10.xvg
run-11/pullf-prd.11.xvg
run-12/pullf-prd.12.xvg
run-13/pullf-prd.13.xvg
run-14/pullf-prd.14.xvg
run-15/pullf-prd.15.xvg
run-16/pullf-prd.16.xvg
run-17/pullf-prd.17.xvg
run-18/pullf-prd.18.xvg
run-19/pullf-prd.19.xvg
run-1/pullf-prd.1.xvg
run-20/pullf-prd.20.xvg
run-21/pullf-prd.21.xvg
run-22/pullf-prd.22.xvg
run-23/pullf-prd.23.xvg
run-24/pullf-prd.24.xvg
run-25/pullf-prd.25.xvg
run-26/pullf-prd.26.xvg
run-2/pullf-prd.2.xvg
run-3/pullf-prd.3.xvg
run-4/pullf-prd.4.xvg
run-5/pullf-prd.5.xvg
run-6/pullf-prd.6.xvg
run-7/pullf-prd.7.xvg
run-8/pullf-prd.8.xvg
run-9/pullf-prd.9.xvg
